i2c_master_axil/dump.vcd
$date
   Mon Nov  4 23:31:00 2024
$end

$version
  2024.1
  $dumpfile ("dump.vcd") 
$end

$timescale
  1ps
$end

$scope module tb_top $end
$var reg 1 ! clk $end
$var reg 1 " rst $end
$scope module i2c_vif $end
$var wire 1 # clk $end
$var wire 1 $ rst $end
$var reg 1 % scl_i $end
$var reg 1 & scl_o $end
$var reg 1 ' scl_t $end
$var reg 1 ( sda_i $end
$var reg 1 ) sda_o $end
$var reg 1 * sda_t $end
$scope module driver $end
$upscope $end
$scope module monitor $end
$upscope $end
$scope module monitor_cb $end
$var reg 1 + scl_i $end
$var reg 1 , scl_o $end
$var reg 1 - scl_t $end
$var reg 1 . sda_i $end
$var reg 1 / sda_o $end
$var reg 1 0 sda_t $end
$upscope $end
$upscope $end
$scope module axil_vif $end
$var wire 1 1 clk $end
$var wire 1 2 rst $end
$var reg 4 3 awaddr [3:0] $end
$var reg 3 4 awprot [2:0] $end
$var reg 1 5 awvalid $end
$var reg 1 6 awready $end
$var reg 32 7 wdata [31:0] $end
$var reg 4 8 wstrb [3:0] $end
$var reg 1 9 wvalid $end
$var reg 1 : wready $end
$var reg 2 ; bresp [1:0] $end
$var reg 1 < bvalid $end
$var reg 1 = bready $end
$var reg 4 > araddr [3:0] $end
$var reg 3 ? arprot [2:0] $end
$var reg 1 @ arvalid $end
$var reg 1 A arready $end
$var reg 32 B rdata [31:0] $end
$var reg 2 C rresp [1:0] $end
$var reg 1 D rvalid $end
$var reg 1 E rready $end
$scope module driver $end
$upscope $end
$scope module monitor $end
$upscope $end
$scope module driver_cb $end
$var reg 1 F awready $end
$var reg 1 G wready $end
$var reg 2 H bresp [1:0] $end
$var reg 1 I bvalid $end
$var reg 1 J arready $end
$var reg 32 K rdata [31:0] $end
$var reg 2 L rresp [1:0] $end
$var reg 1 M rvalid $end
$var reg 1 N rready $end
$var reg 1 O arvalid $end
$var reg 3 P arprot [2:0] $end
$var reg 4 Q araddr [3:0] $end
$var reg 1 R bready $end
$var reg 1 S wvalid $end
$var reg 4 T wstrb [3:0] $end
$var reg 32 U wdata [31:0] $end
$var reg 1 V awvalid $end
$var reg 3 W awprot [2:0] $end
$var reg 4 X awaddr [3:0] $end
$upscope $end
$scope module monitor_cb $end
$var reg 4 Y awaddr [3:0] $end
$var reg 3 Z awprot [2:0] $end
$var reg 1 [ awvalid $end
$var reg 32 \ wdata [31:0] $end
$var reg 4 ] wstrb [3:0] $end
$var reg 1 ^ wvalid $end
$var reg 1 _ bready $end
$var reg 4 ` araddr [3:0] $end
$var reg 3 a arprot [2:0] $end
$var reg 1 b arvalid $end
$var reg 1 c rready $end
$var reg 1 d awready $end
$var reg 1 e wready $end
$var reg 2 f bresp [1:0] $end
$var reg 1 g bvalid $end
$var reg 1 h arready $end
$var reg 32 i rdata [31:0] $end
$var reg 2 j rresp [1:0] $end
$var reg 1 k rvalid $end
$upscope $end
$upscope $end
$scope module dut $end
$var wire 1 l clk $end
$var wire 1 m rst $end
$var wire 4 n s_axil_awaddr [3:0] $end
$var wire 3 o s_axil_awprot [2:0] $end
$var wire 1 p s_axil_awvalid $end
$var wire 1 q s_axil_awready $end
$var wire 32 r s_axil_wdata [31:0] $end
$var wire 4 s s_axil_wstrb [3:0] $end
$var wire 1 t s_axil_wvalid $end
$var wire 1 u s_axil_wready $end
$var wire 2 v s_axil_bresp [1:0] $end
$var wire 1 w s_axil_bvalid $end
$var wire 1 x s_axil_bready $end
$var wire 4 y s_axil_araddr [3:0] $end
$var wire 3 z s_axil_arprot [2:0] $end
$var wire 1 { s_axil_arvalid $end
$var wire 1 | s_axil_arready $end
$var wire 32 } s_axil_rdata [31:0] $end
$var wire 2 ~ s_axil_rresp [1:0] $end
$var wire 1 !! s_axil_rvalid $end
$var wire 1 "! s_axil_rready $end
$var wire 1 #! i2c_scl_i $end
$var wire 1 $! i2c_scl_o $end
$var wire 1 %! i2c_scl_t $end
$var wire 1 &! i2c_sda_i $end
$var wire 1 '! i2c_sda_o $end
$var wire 1 (! i2c_sda_t $end
$var reg 1 )! s_axil_awready_reg $end
$var reg 1 *! s_axil_awready_next $end
$var reg 1 +! s_axil_wready_reg $end
$var reg 1 ,! s_axil_wready_next $end
$var reg 1 -! s_axil_bvalid_reg $end
$var reg 1 .! s_axil_bvalid_next $end
$var reg 1 /! s_axil_arready_reg $end
$var reg 1 0! s_axil_arready_next $end
$var reg 32 1! s_axil_rdata_reg [31:0] $end
$var reg 32 2! s_axil_rdata_next [31:0] $end
$var reg 1 3! s_axil_rvalid_reg $end
$var reg 1 4! s_axil_rvalid_next $end
$var reg 7 5! cmd_address_reg [6:0] $end
$var reg 7 6! cmd_address_next [6:0] $end
$var reg 1 7! cmd_start_reg $end
$var reg 1 8! cmd_start_next $end
$var reg 1 9! cmd_read_reg $end
$var reg 1 :! cmd_read_next $end
$var reg 1 ;! cmd_write_reg $end
$var reg 1 <! cmd_write_next $end
$var reg 1 =! cmd_write_multiple_reg $end
$var reg 1 >! cmd_write_multiple_next $end
$var reg 1 ?! cmd_stop_reg $end
$var reg 1 @! cmd_stop_next $end
$var reg 1 A! cmd_valid_reg $end
$var reg 1 B! cmd_valid_next $end
$var wire 1 C! cmd_ready $end
$var reg 8 D! data_in_reg [7:0] $end
$var reg 8 E! data_in_next [7:0] $end
$var reg 1 F! data_in_valid_reg $end
$var reg 1 G! data_in_valid_next $end
$var wire 1 H! data_in_ready $end
$var reg 1 I! data_in_last_reg $end
$var reg 1 J! data_in_last_next $end
$var wire 8 K! data_out [7:0] $end
$var wire 1 L! data_out_valid $end
$var reg 1 M! data_out_ready_reg $end
$var reg 1 N! data_out_ready_next $end
$var wire 1 O! data_out_last $end
$var reg 16 P! prescale_reg [15:0] $end
$var reg 16 Q! prescale_next [15:0] $end
$var reg 1 R! missed_ack_reg $end
$var reg 1 S! missed_ack_next $end
$var wire 7 T! cmd_address_int [6:0] $end
$var wire 1 U! cmd_start_int $end
$var wire 1 V! cmd_read_int $end
$var wire 1 W! cmd_write_int $end
$var wire 1 X! cmd_write_multiple_int $end
$var wire 1 Y! cmd_stop_int $end
$var wire 1 Z! cmd_valid_int $end
$var wire 1 [! cmd_ready_int $end
$var wire 8 \! data_in_int [7:0] $end
$var wire 1 ]! data_in_valid_int $end
$var wire 1 ^! data_in_ready_int $end
$var wire 1 _! data_in_last_int $end
$var wire 8 `! data_out_int [7:0] $end
$var wire 1 a! data_out_valid_int $end
$var wire 1 b! data_out_ready_int $end
$var wire 1 c! data_out_last_int $end
$var wire 1 d! busy_int $end
$var wire 1 e! bus_control_int $end
$var wire 1 f! bus_active_int $end
$var wire 1 g! missed_ack_int $end
$var wire 1 h! cmd_fifo_empty $end
$var wire 1 i! cmd_fifo_full $end
$var wire 1 j! write_fifo_empty $end
$var wire 1 k! write_fifo_full $end
$var wire 1 l! read_fifo_empty $end
$var wire 1 m! read_fifo_full $end
$var reg 1 n! cmd_fifo_overflow_reg $end
$var reg 1 o! cmd_fifo_overflow_next $end
$var reg 1 p! write_fifo_overflow_reg $end
$var reg 1 q! write_fifo_overflow_next $end
$scope module genblk1.cmd_fifo_inst $end
$var wire 1 l clk $end
$var wire 1 m rst $end
$var wire 12 r! s_axis_tdata [11:0] $end
$var wire 1 s! s_axis_tkeep [0:0] $end
$var wire 1 t! s_axis_tvalid $end
$var wire 1 C! s_axis_tready $end
$var wire 1 u! s_axis_tlast $end
$var wire 8 v! s_axis_tid [7:0] $end
$var wire 8 v! s_axis_tdest [7:0] $end
$var wire 1 u! s_axis_tuser [0:0] $end
$var wire 12 w! m_axis_tdata [11:0] $end
$var wire 1 x! m_axis_tkeep [0:0] $end
$var wire 1 Z! m_axis_tvalid $end
$var wire 1 [! m_axis_tready $end
$var wire 1 y! m_axis_tlast $end
$var wire 8 z! m_axis_tid [7:0] $end
$var wire 8 {! m_axis_tdest [7:0] $end
$var wire 1 |! m_axis_tuser [0:0] $end
$var wire 1 }! status_overflow $end
$var wire 1 ~! status_bad_frame $end
$var wire 1 !" status_good_frame $end
$var wire 1 "" status_full $end
$var wire 1 #" status_empty $end
$var reg 6 $" wr_ptr_reg [5:0] $end
$var reg 6 %" wr_ptr_cur_reg [5:0] $end
$var reg 6 &" rd_ptr_reg [5:0] $end
$var reg 12 '" mem_read_data_reg [11:0] $end
$var reg 1 (" mem_read_data_valid_reg $end
$var wire 12 )" s_axis [11:0] $end
$var reg 2 *" m_axis_tvalid_pipe_reg [1:0] $end
$var wire 1 +" full $end
$var wire 1 ," full_cur $end
$var wire 1 -" empty $end
$var wire 1 ." full_wr $end
$var reg 1 /" drop_frame_reg $end
$var reg 1 0" overflow_reg $end
$var reg 1 1" bad_frame_reg $end
$var reg 1 2" good_frame_reg $end
$var integer 32 3" j [31:0] $end
$upscope $end
$scope module genblk2.write_fifo_inst $end
$var wire 1 l clk $end
$var wire 1 m rst $end
$var wire 8 4" s_axis_tdata [7:0] $end
$var wire 1 s! s_axis_tkeep [0:0] $end
$var wire 1 5" s_axis_tvalid $end
$var wire 1 H! s_axis_tready $end
$var wire 1 6" s_axis_tlast $end
$var wire 8 v! s_axis_tid [7:0] $end
$var wire 8 v! s_axis_tdest [7:0] $end
$var wire 1 u! s_axis_tuser [0:0] $end
$var wire 8 \! m_axis_tdata [7:0] $end
$var wire 1 7" m_axis_tkeep [0:0] $end
$var wire 1 ]! m_axis_tvalid $end
$var wire 1 ^! m_axis_tready $end
$var wire 1 _! m_axis_tlast $end
$var wire 8 8" m_axis_tid [7:0] $end
$var wire 8 9" m_axis_tdest [7:0] $end
$var wire 1 :" m_axis_tuser [0:0] $end
$var wire 1 ;" status_overflow $end
$var wire 1 <" status_bad_frame $end
$var wire 1 =" status_good_frame $end
$var wire 1 >" status_full $end
$var wire 1 ?" status_empty $end
$var reg 6 @" wr_ptr_reg [5:0] $end
$var reg 6 A" wr_ptr_cur_reg [5:0] $end
$var reg 6 B" rd_ptr_reg [5:0] $end
$var reg 9 C" mem_read_data_reg [8:0] $end
$var reg 1 D" mem_read_data_valid_reg $end
$var wire 9 E" s_axis [8:0] $end
$var reg 2 F" m_axis_tvalid_pipe_reg [1:0] $end
$var wire 1 G" full $end
$var wire 1 H" full_cur $end
$var wire 1 I" empty $end
$var wire 1 J" full_wr $end
$var reg 1 K" drop_frame_reg $end
$var reg 1 L" overflow_reg $end
$var reg 1 M" bad_frame_reg $end
$var reg 1 N" good_frame_reg $end
$var integer 32 O" j [31:0] $end
$upscope $end
$scope module genblk3.read_fifo_inst $end
$var wire 1 l clk $end
$var wire 1 m rst $end
$var wire 8 `! s_axis_tdata [7:0] $end
$var wire 1 s! s_axis_tkeep [0:0] $end
$var wire 1 a! s_axis_tvalid $end
$var wire 1 b! s_axis_tready $end
$var wire 1 c! s_axis_tlast $end
$var wire 8 v! s_axis_tid [7:0] $end
$var wire 8 v! s_axis_tdest [7:0] $end
$var wire 1 s! s_axis_tuser [0:0] $end
$var wire 8 K! m_axis_tdata [7:0] $end
$var wire 1 P" m_axis_tkeep [0:0] $end
$var wire 1 L! m_axis_tvalid $end
$var wire 1 Q" m_axis_tready $end
$var wire 1 O! m_axis_tlast $end
$var wire 8 R" m_axis_tid [7:0] $end
$var wire 8 S" m_axis_tdest [7:0] $end
$var wire 1 T" m_axis_tuser [0:0] $end
$var wire 1 U" status_overflow $end
$var wire 1 V" status_bad_frame $end
$var wire 1 W" status_good_frame $end
$var wire 1 X" status_full $end
$var wire 1 Y" status_empty $end
$var reg 6 Z" wr_ptr_reg [5:0] $end
$var reg 6 [" wr_ptr_cur_reg [5:0] $end
$var reg 6 \" rd_ptr_reg [5:0] $end
$var reg 9 ]" mem_read_data_reg [8:0] $end
$var reg 1 ^" mem_read_data_valid_reg $end
$var wire 9 _" s_axis [8:0] $end
$var reg 2 `" m_axis_tvalid_pipe_reg [1:0] $end
$var wire 1 a" full $end
$var wire 1 b" full_cur $end
$var wire 1 c" empty $end
$var wire 1 d" full_wr $end
$var reg 1 e" drop_frame_reg $end
$var reg 1 f" overflow_reg $end
$var reg 1 g" bad_frame_reg $end
$var reg 1 h" good_frame_reg $end
$var integer 32 i" j [31:0] $end
$upscope $end
$scope module i2c_master_inst $end
$var wire 1 l clk $end
$var wire 1 m rst $end
$var wire 7 T! s_axis_cmd_address [6:0] $end
$var wire 1 U! s_axis_cmd_start $end
$var wire 1 V! s_axis_cmd_read $end
$var wire 1 W! s_axis_cmd_write $end
$var wire 1 X! s_axis_cmd_write_multiple $end
$var wire 1 Y! s_axis_cmd_stop $end
$var wire 1 Z! s_axis_cmd_valid $end
$var wire 1 [! s_axis_cmd_ready $end
$var wire 8 \! s_axis_data_tdata [7:0] $end
$var wire 1 ]! s_axis_data_tvalid $end
$var wire 1 ^! s_axis_data_tready $end
$var wire 1 _! s_axis_data_tlast $end
$var wire 8 `! m_axis_data_tdata [7:0] $end
$var wire 1 a! m_axis_data_tvalid $end
$var wire 1 b! m_axis_data_tready $end
$var wire 1 c! m_axis_data_tlast $end
$var wire 1 #! scl_i $end
$var wire 1 $! scl_o $end
$var wire 1 %! scl_t $end
$var wire 1 &! sda_i $end
$var wire 1 '! sda_o $end
$var wire 1 (! sda_t $end
$var wire 1 d! busy $end
$var wire 1 e! bus_control $end
$var wire 1 f! bus_active $end
$var wire 1 g! missed_ack $end
$var wire 16 j" prescale [15:0] $end
$var wire 1 u! stop_on_idle $end
$var reg 5 k" state_reg [4:0] $end
$var reg 5 l" state_next [4:0] $end
$var reg 5 m" phy_state_reg [4:0] $end
$var reg 5 n" phy_state_next [4:0] $end
$var reg 1 o" phy_start_bit $end
$var reg 1 p" phy_stop_bit $end
$var reg 1 q" phy_write_bit $end
$var reg 1 r" phy_read_bit $end
$var reg 1 s" phy_release_bus $end
$var reg 1 t" phy_tx_data $end
$var reg 1 u" phy_rx_data_reg $end
$var reg 1 v" phy_rx_data_next $end
$var reg 7 w" addr_reg [6:0] $end
$var reg 7 x" addr_next [6:0] $end
$var reg 8 y" data_reg [7:0] $end
$var reg 8 z" data_next [7:0] $end
$var reg 1 {" last_reg $end
$var reg 1 |" last_next $end
$var reg 1 }" mode_read_reg $end
$var reg 1 ~" mode_read_next $end
$var reg 1 !# mode_write_multiple_reg $end
$var reg 1 "# mode_write_multiple_next $end
$var reg 1 ## mode_stop_reg $end
$var reg 1 $# mode_stop_next $end
$var reg 17 %# delay_reg [16:0] $end
$var reg 17 &# delay_next [16:0] $end
$var reg 1 '# delay_scl_reg $end
$var reg 1 (# delay_scl_next $end
$var reg 1 )# delay_sda_reg $end
$var reg 1 *# delay_sda_next $end
$var reg 4 +# bit_count_reg [3:0] $end
$var reg 4 ,# bit_count_next [3:0] $end
$var reg 1 -# s_axis_cmd_ready_reg $end
$var reg 1 .# s_axis_cmd_ready_next $end
$var reg 1 /# s_axis_data_tready_reg $end
$var reg 1 0# s_axis_data_tready_next $end
$var reg 8 1# m_axis_data_tdata_reg [7:0] $end
$var reg 8 2# m_axis_data_tdata_next [7:0] $end
$var reg 1 3# m_axis_data_tvalid_reg $end
$var reg 1 4# m_axis_data_tvalid_next $end
$var reg 1 5# m_axis_data_tlast_reg $end
$var reg 1 6# m_axis_data_tlast_next $end
$var reg 1 7# scl_i_reg $end
$var reg 1 8# sda_i_reg $end
$var reg 1 9# scl_o_reg $end
$var reg 1 :# scl_o_next $end
$var reg 1 ;# sda_o_reg $end
$var reg 1 <# sda_o_next $end
$var reg 1 =# last_scl_i_reg $end
$var reg 1 ># last_sda_i_reg $end
$var reg 1 ?# busy_reg $end
$var reg 1 @# bus_active_reg $end
$var reg 1 A# bus_control_reg $end
$var reg 1 B# bus_control_next $end
$var reg 1 C# missed_ack_reg $end
$var reg 1 D# missed_ack_next $end
$var wire 1 E# scl_posedge $end
$var wire 1 F# scl_negedge $end
$var wire 1 G# sda_posedge $end
$var wire 1 H# sda_negedge $end
$var wire 1 I# start_bit $end
$var wire 1 J# stop_bit $end
$upscope $end
$upscope $end
$upscope $end
$enddefinitions $end

#0
$dumpvars
0!
0!!
0!"
0!#
1"
x"!
0""
0"#
0#
x#!
1#"
0##
1$
1$!
b0 $"
0$#
x%
1%!
b0 %"
b0 %#
1&
x&!
b0 &"
b0 &#
1'
1'!
bx '"
0'#
x(
1(!
0("
0(#
1)
0)!
b0 )"
0)#
1*
0*!
b0 *"
0*#
x+
0+!
0+"
b0 +#
x,
0,!
0,"
b0 ,#
x-
0-!
1-"
0-#
x.
0.!
0."
1.#
x/
0/!
0/"
0/#
x0
00!
00"
00#
01
b0 1!
01"
b0 1#
12
b0 2!
02"
b0 2#
bx 3
03!
bx 3"
03#
bx 4
04!
b0 4"
04#
x5
b0 5!
05"
05#
06
b0 6!
06"
06#
bx 7
07!
17"
17#
bx 8
08!
b0 8"
18#
x9
09!
b0 9"
19#
0:
0:!
0:"
1:#
b0 ;
0;!
0;"
1;#
0<
0<!
0<"
1<#
x=
0=!
0="
1=#
bx >
0>!
0>"
1>#
bx ?
0?!
1?"
0?#
x@
0@!
b0 @"
0@#
0A
0A!
b0 A"
0A#
b0 B
0B!
b0 B"
0B#
b0 C
1C!
bx C"
0C#
0D
b0 D!
0D"
0D#
xE
b0 E!
b0 E"
0E#
xF
0F!
b0 F"
0F#
xG
0G!
0G"
0G#
bx H
1H!
0H"
0H#
xI
0I!
1I"
0I#
xJ
0J!
0J"
0J#
bx K
bx K!
0K"
bx L
0L!
0L"
xM
0M!
0M"
xN
0N!
0N"
xO
xO!
bx O"
bx P
b1 P!
1P"
bx Q
b1 Q!
0Q"
xR
0R!
b0 R"
xS
0S!
b0 S"
bx T
bx T!
0T"
bx U
xU!
0U"
xV
xV!
0V"
bx W
xW!
0W"
bx X
xX!
0X"
bx Y
xY!
1Y"
bx Z
0Z!
b0 Z"
x[
0[!
b0 ["
bx \
bx \!
b0 \"
bx ]
0]!
bx ]"
x^
0^!
0^"
x_
x_!
b0 _"
bx `
b0 `!
b0 `"
bx a
0a!
0a"
xb
1b!
0b"
xc
0c!
1c"
xd
0d!
0d"
xe
0e!
0e"
bx f
0f!
0f"
xg
0g!
0g"
xh
1h!
0h"
bx i
0i!
bx i"
bx j
1j!
b1 j"
xk
0k!
b0 k"
0l
1l!
b0 l"
1m
0m!
b0 m"
bx n
0n!
b0 n"
bx o
0o!
0o"
xp
0p!
0p"
0q
0q!
0q"
bx r
b0 r!
0r"
bx s
0s!
0s"
xt
0t!
0t"
0u
0u!
0u"
b0 v
b0 v!
0v"
0w
bx w!
b0 w"
xx
1x!
b0 x"
bx y
1y!
b0 y"
bx z
b0 z!
b0 z"
x{
b0 {!
0{"
0|
0|!
0|"
b0 }
0}!
0}"
b0 ~
0~!
0~"
$end

#5000
1!
1#
1*!
1,
1,!
1-
0-#
1.!
1/
10
11
b1100 3
b0 3"
b0 4
15
b1 7
x7#
b1111 8
x8#
19
0F
xF#
0G
b0 H
xH#
0I
xI#
0J
b0 K
b0 L
0M
b0 O"
1S
b1111 T
b1 U
1V
b0 W
b1100 X
0d
0e
b0 f
0g
0h
b0 i
b0 i"
b0 j
0k
1l
b1100 n
b0 o
1p
b1 r
b1111 s
1t

#10000
0!
0#
01
0l

#15000
1!
1#
0)!
1*!
0+!
1,!
0-!
0-#
1.!
11
b0 3"
x=#
x>#
xE#
xG#
xJ#
b0 O"
b1100 Y
b0 Z
1[
b1 \
b1111 ]
1^
b0 i"
1l

#20000
0!
0#
01
0l

#25000
1!
1#
0)!
1*!
0+!
1,!
0-!
0-#
1.!
11
b0 3"
b0 O"
b0 i"
1l

#30000
0!
0#
01
0l

#35000
1!
1#
0)!
1*!
0+!
1,!
0-!
0-#
1.!
11
b0 3"
b0 O"
b0 i"
1l

#40000
0!
0#
01
0l

#45000
1!
1#
0)!
1*!
0+!
1,!
0-!
0-#
1.!
11
b0 3"
b0 O"
b0 i"
1l

#50000
0!
0#
01
0l

#55000
1!
1#
0)!
1*!
0+!
1,!
0-!
0-#
1.!
11
b0 3"
b0 O"
b0 i"
1l

#60000
0!
0#
01
0l

#65000
1!
1#
0)!
1*!
0+!
1,!
0-!
0-#
1.!
11
b0 3"
b0 O"
b0 i"
1l

#70000
0!
0#
01
0l

#75000
1!
1#
0)!
1*!
0+!
1,!
0-!
0-#
1.!
11
b0 3"
b0 O"
b0 i"
1l

#80000
0!
0#
01
0l

#85000
1!
1#
0)!
1*!
0+!
1,!
0-!
0-#
1.!
11
b0 3"
b0 O"
b0 i"
1l

#90000
0!
0#
01
0l

#95000
1!
1#
0)!
1*!
0+!
1,!
0-!
0-#
1.!
11
b0 3"
b0 O"
b0 i"
1l

#100000
0!
0"
0#
0$
01
02
0l
0m

#105000
1!
1#
1)!
0*!
1+!
0,!
1-!
1-#
x.!
1.#
11
b0 3"
16
1:
1<
b0 O"
1[!
b0 i"
1l
1q
1u
1w

#110000
0!
0#
01
0l

#115000
1!
1#
0)!
0+!
x-!
0.!
11
b0 3"
05
06
09
0:
x<
1=
1F
1G
1I
b0 O"
1R
0S
0V
1d
1e
1g
b0 i"
1l
0p
0q
0t
0u
xw
1x

#120000
0!
0#
01
0l

#125000
1!
1#
0-!
11
b0 3"
0<
0=
0F
0G
xI
b0 O"
0R
0[
0^
1_
0d
0e
xg
b0 i"
1l
0w
0x

#130000
0!
0#
01
0l

#135000
1!
1#
11
b0 3"
0I
b0 O"
0_
0g
b0 i"
1l

#140000
0!
0#
01
0l

#145000
1!
1#
11
b0 3"
b0 O"
b0 i"
1l

#150000
0!
0#
01
0l

#155000
1!
1#
11
b0 3"
b0 O"
b0 i"
1l

#160000
0!
0#
01
0l

#165000
1!
1#
11
b0 3"
b0 O"
b0 i"
1l

#170000
0!
0#
01
0l

#175000
1!
1#
11
b0 3"
b0 O"
b0 i"
1l

#180000
0!
0#
01
0l

#185000
1!
1#
11
b0 3"
b0 O"
b0 i"
1l

#190000
0!
0#
01
0l

#195000
1!
1#
11
b0 3"
b0 O"
b0 i"
1l

#200000
0!
0#
01
0l

#205000
1!
1#
11
b0 3"
b0 O"
b0 i"
1l

#210000
0!
0#
01
0l

#215000
1!
1#
11
b0 3"
b0 O"
b0 i"
1l

#220000
0!
0#
01
0l

#225000
1!
1#
11
b0 3"
b0 O"
b0 i"
1l

#230000
0!
0#
01
0l

#235000
1!
1#
11
b0 3"
b0 O"
b0 i"
1l

#240000
0!
0#
01
0l

#245000
1!
1#
11
b0 3"
b0 O"
b0 i"
1l

#250000
0!
0#
01
0l

#255000
1!
1#
11
b0 3"
b0 O"
b0 i"
1l

#260000
0!
0#
01
0l

#265000
1!
1#
11
b0 3"
b0 O"
b0 i"
1l

#270000
0!
0#
01
0l

#275000
1!
1#
11
b0 3"
b0 O"
b0 i"
1l

#280000
0!
0#
01
0l

#285000
1!
1#
11
b0 3"
b0 O"
b0 i"
1l

#290000
0!
0#
01
0l

#295000
1!
1#
11
b0 3"
b0 O"
b0 i"
1l

#300000
0!
0#
01
0l

#305000
1!
1#
11
b0 3"
b0 O"
b0 i"
1l

#310000
0!
0#
01
0l

#315000
1!
1#
11
b0 3"
b0 O"
b0 i"
1l

#320000
0!
0#
01
0l

#325000
1!
1#
11
b0 3"
b0 O"
b0 i"
1l

#330000
0!
0#
01
0l

#335000
1!
1#
11
b0 3"
b0 O"
b0 i"
1l

#340000
0!
0#
01
0l

#345000
1!
1#
11
b0 3"
b0 O"
b0 i"
1l

#350000
0!
0#
01
0l

#355000
1!
1#
11
b0 3"
b0 O"
b0 i"
1l

#360000
0!
0#
01
0l

#365000
1!
1#
11
b0 3"
b0 O"
b0 i"
1l

#370000
0!
0#
01
0l

#375000
1!
1#
11
b0 3"
b0 O"
b0 i"
1l

#380000
0!
0#
01
0l

#385000
1!
1#
11
b0 3"
b0 O"
b0 i"
1l

#390000
0!
0#
01
0l

#395000
1!
1#
11
b0 3"
b0 O"
b0 i"
1l

#400000
0!
0#
01
0l

#405000
1!
1#
11
b0 3"
b0 O"
b0 i"
1l

#410000
0!
0#
01
0l

#415000
1!
1#
11
b0 3"
b0 O"
b0 i"
1l

#420000
0!
0#
01
0l

#425000
1!
1#
11
b0 3"
b0 O"
b0 i"
1l

#430000
0!
0#
01
0l

#435000
1!
1#
11
b0 3"
b0 O"
b0 i"
1l

#440000
0!
0#
01
0l

#445000
1!
1#
11
b0 3"
b0 O"
b0 i"
1l

#450000
0!
0#
01
0l

#455000
1!
1#
11
b0 3"
b0 O"
b0 i"
1l

#460000
0!
0#
01
0l

#465000
1!
1#
11
b0 3"
b0 O"
b0 i"
1l

#470000
0!
0#
01
0l

#475000
1!
1#
11
b0 3"
b0 O"
b0 i"
1l

#480000
0!
0#
01
0l

#485000
1!
1#
11
b0 3"
b0 O"
b0 i"
1l

#490000
0!
0#
01
0l

#495000
1!
1#
11
b0 3"
b0 O"
b0 i"
1l

#500000
0!
0#
01
0l

#505000
1!
1#
11
b0 3"
b0 O"
b0 i"
1l

#510000
0!
0#
01
0l

#515000
1!
1#
11
b0 3"
b0 O"
b0 i"
1l

#520000
0!
0#
01
0l

#525000
1!
1#
11
b0 3"
b0 O"
b0 i"
1l

#530000
0!
0#
01
0l

#535000
1!
1#
11
b0 3"
b0 O"
b0 i"
1l

#540000
0!
0#
01
0l

#545000
1!
1#
11
b0 3"
b0 O"
b0 i"
1l

#550000
0!
0#
01
0l

#555000
1!
1#
11
b0 3"
b0 O"
b0 i"
1l

#560000
0!
0#
01
0l

#565000
1!
1#
11
b0 3"
b0 O"
b0 i"
1l

#570000
0!
0#
01
0l

#575000
1!
1#
11
b0 3"
b0 O"
b0 i"
1l

#580000
0!
0#
01
0l

#585000
1!
1#
11
b0 3"
b0 O"
b0 i"
1l

#590000
0!
0#
01
0l

#595000
1!
1#
11
b0 3"
b0 O"
b0 i"
1l

#600000
0!
0#
01
0l

#605000
1!
1#
11
b0 3"
b0 O"
b0 i"
1l

#610000
0!
0#
01
0l

#615000
1!
1#
11
b0 3"
b0 O"
b0 i"
1l

#620000
0!
0#
01
0l

#625000
1!
1#
11
b0 3"
b0 O"
b0 i"
1l

#630000
0!
0#
01
0l

#635000
1!
1#
11
b0 3"
b0 O"
b0 i"
1l

#640000
0!
0#
01
0l

#645000
1!
1#
11
b0 3"
b0 O"
b0 i"
1l

#650000
0!
0#
01
0l

#655000
1!
1#
11
b0 3"
b0 O"
b0 i"
1l

#660000
0!
0#
01
0l

#665000
1!
1#
11
b0 3"
b0 O"
b0 i"
1l

#670000
0!
0#
01
0l

#675000
1!
1#
11
b0 3"
b0 O"
b0 i"
1l

#680000
0!
0#
01
0l

#685000
1!
1#
11
b0 3"
b0 O"
b0 i"
1l

#690000
0!
0#
01
0l

#695000
1!
1#
11
b0 3"
b0 O"
b0 i"
1l

#700000
0!
0#
01
0l

#705000
1!
1#
11
b0 3"
b0 O"
b0 i"
1l

#710000
0!
0#
01
0l

#715000
1!
1#
11
b0 3"
b0 O"
b0 i"
1l

#720000
0!
0#
01
0l

#725000
1!
1#
11
b0 3"
b0 O"
b0 i"
1l

#730000
0!
0#
01
0l

#735000
1!
1#
11
b0 3"
b0 O"
b0 i"
1l

#740000
0!
0#
01
0l

#745000
1!
1#
11
b0 3"
b0 O"
b0 i"
1l

#750000
0!
0#
01
0l

#755000
1!
1#
11
b0 3"
b0 O"
b0 i"
1l

#760000
0!
0#
01
0l

#765000
1!
1#
11
b0 3"
b0 O"
b0 i"
1l

#770000
0!
0#
01
0l

#775000
1!
1#
11
b0 3"
b0 O"
b0 i"
1l

#780000
0!
0#
01
0l

#785000
1!
1#
11
b0 3"
b0 O"
b0 i"
1l

#790000
0!
0#
01
0l

#795000
1!
1#
11
b0 3"
b0 O"
b0 i"
1l

#800000
0!
0#
01
0l

#805000
1!
1#
11
b0 3"
b0 O"
b0 i"
1l

#810000
0!
0#
01
0l

#815000
1!
1#
11
b0 3"
b0 O"
b0 i"
1l

#820000
0!
0#
01
0l

#825000
1!
1#
11
b0 3"
b0 O"
b0 i"
1l

#830000
0!
0#
01
0l

#835000
1!
1#
11
b0 3"
b0 O"
b0 i"
1l

#840000
0!
0#
01
0l

#845000
1!
1#
11
b0 3"
b0 O"
b0 i"
1l

#850000
0!
0#
01
0l

#855000
1!
1#
11
b0 3"
b0 O"
b0 i"
1l

#860000
0!
0#
01
0l

#865000
1!
1#
11
b0 3"
b0 O"
b0 i"
1l

#870000
0!
0#
01
0l

#875000
1!
1#
11
b0 3"
b0 O"
b0 i"
1l

#880000
0!
0#
01
0l

#885000
1!
1#
11
b0 3"
b0 O"
b0 i"
1l

#890000
0!
0#
01
0l

#895000
1!
1#
11
b0 3"
b0 O"
b0 i"
1l

#900000
0!
0#
01
0l

#905000
1!
1#
11
b0 3"
b0 O"
b0 i"
1l

#910000
0!
0#
01
0l

#915000
1!
1#
11
b0 3"
b0 O"
b0 i"
1l

#920000
0!
0#
01
0l

#925000
1!
1#
11
b0 3"
b0 O"
b0 i"
1l

#930000
0!
0#
01
0l

#935000
1!
1#
11
b0 3"
b0 O"
b0 i"
1l

#940000
0!
0#
01
0l

#945000
1!
1#
11
b0 3"
b0 O"
b0 i"
1l

#950000
0!
0#
01
0l

#955000
1!
1#
11
b0 3"
b0 O"
b0 i"
1l

#960000
0!
0#
01
0l

#965000
1!
1#
11
b0 3"
b0 O"
b0 i"
1l

#970000
0!
0#
01
0l

#975000
1!
1#
11
b0 3"
b0 O"
b0 i"
1l

#980000
0!
0#
01
0l

#985000
1!
1#
11
b0 3"
b0 O"
b0 i"
1l

#990000
0!
0#
01
0l

#995000
1!
1#
11
b0 3"
b0 O"
b0 i"
1l

#1000000
0!
0#
01
0l

#1005000
1!
1#
11
b0 3"
b0 O"
b0 i"
1l

#1010000
0!
0#
01
0l

