build/dump.vcd
$date
   Tue Nov  5 15:37:04 2024
$end

$version
  2024.1
  $dumpfile ("dump.vcd") 
$end

$timescale
  1ps
$end

$scope module tb_top $end
$var reg 1 ! clk $end
$var reg 1 " rst $end
$var wire 1 # scl_dut_i $end
$var wire 1 $ scl_tb_i $end
$var wire 1 % sda_dut_i $end
$var wire 1 & sda_tb_i $end
$var wire 1 ' scl_tb_o $end
$var wire 1 ( sda_tb_o $end
$var wire 1 ) scl_dut_o $end
$var wire 1 * sda_dut_o $end
$scope module i2c_vif $end
$var wire 1 + clk $end
$var wire 1 , rst $end
$var reg 1 - scl_i $end
$var reg 1 . scl_o $end
$var reg 1 / scl_t $end
$var reg 1 0 sda_i $end
$var reg 1 1 sda_o $end
$var reg 1 2 sda_t $end
$scope module driver $end
$upscope $end
$scope module monitor $end
$upscope $end
$scope module monitor_cb $end
$var reg 1 3 scl_i $end
$var reg 1 4 scl_o $end
$var reg 1 5 scl_t $end
$var reg 1 6 sda_i $end
$var reg 1 7 sda_o $end
$var reg 1 8 sda_t $end
$upscope $end
$upscope $end
$scope module axil_vif $end
$var wire 1 9 clk $end
$var wire 1 : rst $end
$var reg 4 ; awaddr [3:0] $end
$var reg 3 < awprot [2:0] $end
$var reg 1 = awvalid $end
$var reg 1 > awready $end
$var reg 32 ? wdata [31:0] $end
$var reg 4 @ wstrb [3:0] $end
$var reg 1 A wvalid $end
$var reg 1 B wready $end
$var reg 2 C bresp [1:0] $end
$var reg 1 D bvalid $end
$var reg 1 E bready $end
$var reg 4 F araddr [3:0] $end
$var reg 3 G arprot [2:0] $end
$var reg 1 H arvalid $end
$var reg 1 I arready $end
$var reg 32 J rdata [31:0] $end
$var reg 2 K rresp [1:0] $end
$var reg 1 L rvalid $end
$var reg 1 M rready $end
$scope module driver $end
$upscope $end
$scope module monitor $end
$upscope $end
$scope module driver_cb $end
$var reg 1 N awready $end
$var reg 1 O wready $end
$var reg 2 P bresp [1:0] $end
$var reg 1 Q bvalid $end
$var reg 1 R arready $end
$var reg 32 S rdata [31:0] $end
$var reg 2 T rresp [1:0] $end
$var reg 1 U rvalid $end
$var reg 1 V rready $end
$var reg 1 W arvalid $end
$var reg 3 X arprot [2:0] $end
$var reg 4 Y araddr [3:0] $end
$var reg 1 Z bready $end
$var reg 1 [ wvalid $end
$var reg 4 \ wstrb [3:0] $end
$var reg 32 ] wdata [31:0] $end
$var reg 1 ^ awvalid $end
$var reg 3 _ awprot [2:0] $end
$var reg 4 ` awaddr [3:0] $end
$upscope $end
$scope module monitor_cb $end
$var reg 4 a awaddr [3:0] $end
$var reg 3 b awprot [2:0] $end
$var reg 1 c awvalid $end
$var reg 32 d wdata [31:0] $end
$var reg 4 e wstrb [3:0] $end
$var reg 1 f wvalid $end
$var reg 1 g bready $end
$var reg 4 h araddr [3:0] $end
$var reg 3 i arprot [2:0] $end
$var reg 1 j arvalid $end
$var reg 1 k rready $end
$var reg 1 l awready $end
$var reg 1 m wready $end
$var reg 2 n bresp [1:0] $end
$var reg 1 o bvalid $end
$var reg 1 p arready $end
$var reg 32 q rdata [31:0] $end
$var reg 2 r rresp [1:0] $end
$var reg 1 s rvalid $end
$upscope $end
$upscope $end
$scope module dut $end
$var wire 1 t clk $end
$var wire 1 u rst $end
$var wire 4 v s_axil_awaddr [3:0] $end
$var wire 3 w s_axil_awprot [2:0] $end
$var wire 1 x s_axil_awvalid $end
$var wire 1 y s_axil_awready $end
$var wire 32 z s_axil_wdata [31:0] $end
$var wire 4 { s_axil_wstrb [3:0] $end
$var wire 1 | s_axil_wvalid $end
$var wire 1 } s_axil_wready $end
$var wire 2 ~ s_axil_bresp [1:0] $end
$var wire 1 !! s_axil_bvalid $end
$var wire 1 "! s_axil_bready $end
$var wire 4 #! s_axil_araddr [3:0] $end
$var wire 3 $! s_axil_arprot [2:0] $end
$var wire 1 %! s_axil_arvalid $end
$var wire 1 &! s_axil_arready $end
$var wire 32 '! s_axil_rdata [31:0] $end
$var wire 2 (! s_axil_rresp [1:0] $end
$var wire 1 )! s_axil_rvalid $end
$var wire 1 *! s_axil_rready $end
$var wire 1 # i2c_scl_i $end
$var wire 1 ) i2c_scl_o $end
$var wire 1 +! i2c_scl_t $end
$var wire 1 % i2c_sda_i $end
$var wire 1 * i2c_sda_o $end
$var wire 1 ,! i2c_sda_t $end
$var reg 1 -! s_axil_awready_reg $end
$var reg 1 .! s_axil_awready_next $end
$var reg 1 /! s_axil_wready_reg $end
$var reg 1 0! s_axil_wready_next $end
$var reg 1 1! s_axil_bvalid_reg $end
$var reg 1 2! s_axil_bvalid_next $end
$var reg 1 3! s_axil_arready_reg $end
$var reg 1 4! s_axil_arready_next $end
$var reg 32 5! s_axil_rdata_reg [31:0] $end
$var reg 32 6! s_axil_rdata_next [31:0] $end
$var reg 1 7! s_axil_rvalid_reg $end
$var reg 1 8! s_axil_rvalid_next $end
$var reg 7 9! cmd_address_reg [6:0] $end
$var reg 7 :! cmd_address_next [6:0] $end
$var reg 1 ;! cmd_start_reg $end
$var reg 1 <! cmd_start_next $end
$var reg 1 =! cmd_read_reg $end
$var reg 1 >! cmd_read_next $end
$var reg 1 ?! cmd_write_reg $end
$var reg 1 @! cmd_write_next $end
$var reg 1 A! cmd_write_multiple_reg $end
$var reg 1 B! cmd_write_multiple_next $end
$var reg 1 C! cmd_stop_reg $end
$var reg 1 D! cmd_stop_next $end
$var reg 1 E! cmd_valid_reg $end
$var reg 1 F! cmd_valid_next $end
$var wire 1 G! cmd_ready $end
$var reg 8 H! data_in_reg [7:0] $end
$var reg 8 I! data_in_next [7:0] $end
$var reg 1 J! data_in_valid_reg $end
$var reg 1 K! data_in_valid_next $end
$var wire 1 L! data_in_ready $end
$var reg 1 M! data_in_last_reg $end
$var reg 1 N! data_in_last_next $end
$var wire 8 O! data_out [7:0] $end
$var wire 1 P! data_out_valid $end
$var reg 1 Q! data_out_ready_reg $end
$var reg 1 R! data_out_ready_next $end
$var wire 1 S! data_out_last $end
$var reg 16 T! prescale_reg [15:0] $end
$var reg 16 U! prescale_next [15:0] $end
$var reg 1 V! missed_ack_reg $end
$var reg 1 W! missed_ack_next $end
$var wire 7 X! cmd_address_int [6:0] $end
$var wire 1 Y! cmd_start_int $end
$var wire 1 Z! cmd_read_int $end
$var wire 1 [! cmd_write_int $end
$var wire 1 \! cmd_write_multiple_int $end
$var wire 1 ]! cmd_stop_int $end
$var wire 1 ^! cmd_valid_int $end
$var wire 1 _! cmd_ready_int $end
$var wire 8 `! data_in_int [7:0] $end
$var wire 1 a! data_in_valid_int $end
$var wire 1 b! data_in_ready_int $end
$var wire 1 c! data_in_last_int $end
$var wire 8 d! data_out_int [7:0] $end
$var wire 1 e! data_out_valid_int $end
$var wire 1 f! data_out_ready_int $end
$var wire 1 g! data_out_last_int $end
$var wire 1 h! busy_int $end
$var wire 1 i! bus_control_int $end
$var wire 1 j! bus_active_int $end
$var wire 1 k! missed_ack_int $end
$var wire 1 l! cmd_fifo_empty $end
$var wire 1 m! cmd_fifo_full $end
$var wire 1 n! write_fifo_empty $end
$var wire 1 o! write_fifo_full $end
$var wire 1 p! read_fifo_empty $end
$var wire 1 q! read_fifo_full $end
$var reg 1 r! cmd_fifo_overflow_reg $end
$var reg 1 s! cmd_fifo_overflow_next $end
$var reg 1 t! write_fifo_overflow_reg $end
$var reg 1 u! write_fifo_overflow_next $end
$scope module genblk1.cmd_fifo_inst $end
$var wire 1 t clk $end
$var wire 1 u rst $end
$var wire 12 v! s_axis_tdata [11:0] $end
$var wire 1 w! s_axis_tkeep [0:0] $end
$var wire 1 x! s_axis_tvalid $end
$var wire 1 G! s_axis_tready $end
$var wire 1 y! s_axis_tlast $end
$var wire 8 z! s_axis_tid [7:0] $end
$var wire 8 z! s_axis_tdest [7:0] $end
$var wire 1 y! s_axis_tuser [0:0] $end
$var wire 12 {! m_axis_tdata [11:0] $end
$var wire 1 |! m_axis_tkeep [0:0] $end
$var wire 1 ^! m_axis_tvalid $end
$var wire 1 _! m_axis_tready $end
$var wire 1 }! m_axis_tlast $end
$var wire 8 ~! m_axis_tid [7:0] $end
$var wire 8 !" m_axis_tdest [7:0] $end
$var wire 1 "" m_axis_tuser [0:0] $end
$var wire 1 #" status_overflow $end
$var wire 1 $" status_bad_frame $end
$var wire 1 %" status_good_frame $end
$var wire 1 &" status_full $end
$var wire 1 '" status_empty $end
$var reg 6 (" wr_ptr_reg [5:0] $end
$var reg 6 )" wr_ptr_cur_reg [5:0] $end
$var reg 6 *" rd_ptr_reg [5:0] $end
$var reg 12 +" mem_read_data_reg [11:0] $end
$var reg 1 ," mem_read_data_valid_reg $end
$var wire 12 -" s_axis [11:0] $end
$var reg 2 ." m_axis_tvalid_pipe_reg [1:0] $end
$var wire 1 /" full $end
$var wire 1 0" full_cur $end
$var wire 1 1" empty $end
$var wire 1 2" full_wr $end
$var reg 1 3" drop_frame_reg $end
$var reg 1 4" overflow_reg $end
$var reg 1 5" bad_frame_reg $end
$var reg 1 6" good_frame_reg $end
$var integer 32 7" j [31:0] $end
$upscope $end
$scope module genblk2.write_fifo_inst $end
$var wire 1 t clk $end
$var wire 1 u rst $end
$var wire 8 8" s_axis_tdata [7:0] $end
$var wire 1 w! s_axis_tkeep [0:0] $end
$var wire 1 9" s_axis_tvalid $end
$var wire 1 L! s_axis_tready $end
$var wire 1 :" s_axis_tlast $end
$var wire 8 z! s_axis_tid [7:0] $end
$var wire 8 z! s_axis_tdest [7:0] $end
$var wire 1 y! s_axis_tuser [0:0] $end
$var wire 8 `! m_axis_tdata [7:0] $end
$var wire 1 ;" m_axis_tkeep [0:0] $end
$var wire 1 a! m_axis_tvalid $end
$var wire 1 b! m_axis_tready $end
$var wire 1 c! m_axis_tlast $end
$var wire 8 <" m_axis_tid [7:0] $end
$var wire 8 =" m_axis_tdest [7:0] $end
$var wire 1 >" m_axis_tuser [0:0] $end
$var wire 1 ?" status_overflow $end
$var wire 1 @" status_bad_frame $end
$var wire 1 A" status_good_frame $end
$var wire 1 B" status_full $end
$var wire 1 C" status_empty $end
$var reg 6 D" wr_ptr_reg [5:0] $end
$var reg 6 E" wr_ptr_cur_reg [5:0] $end
$var reg 6 F" rd_ptr_reg [5:0] $end
$var reg 9 G" mem_read_data_reg [8:0] $end
$var reg 1 H" mem_read_data_valid_reg $end
$var wire 9 I" s_axis [8:0] $end
$var reg 2 J" m_axis_tvalid_pipe_reg [1:0] $end
$var wire 1 K" full $end
$var wire 1 L" full_cur $end
$var wire 1 M" empty $end
$var wire 1 N" full_wr $end
$var reg 1 O" drop_frame_reg $end
$var reg 1 P" overflow_reg $end
$var reg 1 Q" bad_frame_reg $end
$var reg 1 R" good_frame_reg $end
$var integer 32 S" j [31:0] $end
$upscope $end
$scope module genblk3.read_fifo_inst $end
$var wire 1 t clk $end
$var wire 1 u rst $end
$var wire 8 d! s_axis_tdata [7:0] $end
$var wire 1 w! s_axis_tkeep [0:0] $end
$var wire 1 e! s_axis_tvalid $end
$var wire 1 f! s_axis_tready $end
$var wire 1 g! s_axis_tlast $end
$var wire 8 z! s_axis_tid [7:0] $end
$var wire 8 z! s_axis_tdest [7:0] $end
$var wire 1 w! s_axis_tuser [0:0] $end
$var wire 8 O! m_axis_tdata [7:0] $end
$var wire 1 T" m_axis_tkeep [0:0] $end
$var wire 1 P! m_axis_tvalid $end
$var wire 1 U" m_axis_tready $end
$var wire 1 S! m_axis_tlast $end
$var wire 8 V" m_axis_tid [7:0] $end
$var wire 8 W" m_axis_tdest [7:0] $end
$var wire 1 X" m_axis_tuser [0:0] $end
$var wire 1 Y" status_overflow $end
$var wire 1 Z" status_bad_frame $end
$var wire 1 [" status_good_frame $end
$var wire 1 \" status_full $end
$var wire 1 ]" status_empty $end
$var reg 6 ^" wr_ptr_reg [5:0] $end
$var reg 6 _" wr_ptr_cur_reg [5:0] $end
$var reg 6 `" rd_ptr_reg [5:0] $end
$var reg 9 a" mem_read_data_reg [8:0] $end
$var reg 1 b" mem_read_data_valid_reg $end
$var wire 9 c" s_axis [8:0] $end
$var reg 2 d" m_axis_tvalid_pipe_reg [1:0] $end
$var wire 1 e" full $end
$var wire 1 f" full_cur $end
$var wire 1 g" empty $end
$var wire 1 h" full_wr $end
$var reg 1 i" drop_frame_reg $end
$var reg 1 j" overflow_reg $end
$var reg 1 k" bad_frame_reg $end
$var reg 1 l" good_frame_reg $end
$var integer 32 m" j [31:0] $end
$upscope $end
$scope module i2c_master_inst $end
$var wire 1 t clk $end
$var wire 1 u rst $end
$var wire 7 X! s_axis_cmd_address [6:0] $end
$var wire 1 Y! s_axis_cmd_start $end
$var wire 1 Z! s_axis_cmd_read $end
$var wire 1 [! s_axis_cmd_write $end
$var wire 1 \! s_axis_cmd_write_multiple $end
$var wire 1 ]! s_axis_cmd_stop $end
$var wire 1 ^! s_axis_cmd_valid $end
$var wire 1 _! s_axis_cmd_ready $end
$var wire 8 `! s_axis_data_tdata [7:0] $end
$var wire 1 a! s_axis_data_tvalid $end
$var wire 1 b! s_axis_data_tready $end
$var wire 1 c! s_axis_data_tlast $end
$var wire 8 d! m_axis_data_tdata [7:0] $end
$var wire 1 e! m_axis_data_tvalid $end
$var wire 1 f! m_axis_data_tready $end
$var wire 1 g! m_axis_data_tlast $end
$var wire 1 # scl_i $end
$var wire 1 ) scl_o $end
$var wire 1 +! scl_t $end
$var wire 1 % sda_i $end
$var wire 1 * sda_o $end
$var wire 1 ,! sda_t $end
$var wire 1 h! busy $end
$var wire 1 i! bus_control $end
$var wire 1 j! bus_active $end
$var wire 1 k! missed_ack $end
$var wire 16 n" prescale [15:0] $end
$var wire 1 y! stop_on_idle $end
$var reg 5 o" state_reg [4:0] $end
$var reg 5 p" state_next [4:0] $end
$var reg 5 q" phy_state_reg [4:0] $end
$var reg 5 r" phy_state_next [4:0] $end
$var reg 1 s" phy_start_bit $end
$var reg 1 t" phy_stop_bit $end
$var reg 1 u" phy_write_bit $end
$var reg 1 v" phy_read_bit $end
$var reg 1 w" phy_release_bus $end
$var reg 1 x" phy_tx_data $end
$var reg 1 y" phy_rx_data_reg $end
$var reg 1 z" phy_rx_data_next $end
$var reg 7 {" addr_reg [6:0] $end
$var reg 7 |" addr_next [6:0] $end
$var reg 8 }" data_reg [7:0] $end
$var reg 8 ~" data_next [7:0] $end
$var reg 1 !# last_reg $end
$var reg 1 "# last_next $end
$var reg 1 ## mode_read_reg $end
$var reg 1 $# mode_read_next $end
$var reg 1 %# mode_write_multiple_reg $end
$var reg 1 &# mode_write_multiple_next $end
$var reg 1 '# mode_stop_reg $end
$var reg 1 (# mode_stop_next $end
$var reg 17 )# delay_reg [16:0] $end
$var reg 17 *# delay_next [16:0] $end
$var reg 1 +# delay_scl_reg $end
$var reg 1 ,# delay_scl_next $end
$var reg 1 -# delay_sda_reg $end
$var reg 1 .# delay_sda_next $end
$var reg 4 /# bit_count_reg [3:0] $end
$var reg 4 0# bit_count_next [3:0] $end
$var reg 1 1# s_axis_cmd_ready_reg $end
$var reg 1 2# s_axis_cmd_ready_next $end
$var reg 1 3# s_axis_data_tready_reg $end
$var reg 1 4# s_axis_data_tready_next $end
$var reg 8 5# m_axis_data_tdata_reg [7:0] $end
$var reg 8 6# m_axis_data_tdata_next [7:0] $end
$var reg 1 7# m_axis_data_tvalid_reg $end
$var reg 1 8# m_axis_data_tvalid_next $end
$var reg 1 9# m_axis_data_tlast_reg $end
$var reg 1 :# m_axis_data_tlast_next $end
$var reg 1 ;# scl_i_reg $end
$var reg 1 <# sda_i_reg $end
$var reg 1 =# scl_o_reg $end
$var reg 1 ># scl_o_next $end
$var reg 1 ?# sda_o_reg $end
$var reg 1 @# sda_o_next $end
$var reg 1 A# last_scl_i_reg $end
$var reg 1 B# last_sda_i_reg $end
$var reg 1 C# busy_reg $end
$var reg 1 D# bus_active_reg $end
$var reg 1 E# bus_control_reg $end
$var reg 1 F# bus_control_next $end
$var reg 1 G# missed_ack_reg $end
$var reg 1 H# missed_ack_next $end
$var wire 1 I# scl_posedge $end
$var wire 1 J# scl_negedge $end
$var wire 1 K# sda_posedge $end
$var wire 1 L# sda_negedge $end
$var wire 1 M# start_bit $end
$var wire 1 N# stop_bit $end
$upscope $end
$upscope $end
$upscope $end
$enddefinitions $end

#0
$dumpvars
0!
0!!
b0 !"
0!#
1"
x"!
0""
0"#
x#
bx #!
0#"
0##
x$
bx $!
0$"
0$#
1%
x%!
0%"
0%#
1&
0&!
0&"
0&#
x'
b0 '!
1'"
0'#
1(
b0 (!
b0 ("
0(#
1)
0)!
b0 )"
b0 )#
1*
x*!
b0 *"
b0 *#
0+
1+!
bx +"
0+#
1,
1,!
0,"
0,#
x-
0-!
b0 -"
0-#
x.
0.!
b0 ."
0.#
1/
0/!
0/"
b0 /#
10
00!
00"
b0 0#
11
01!
11"
01#
12
02!
02"
12#
x3
03!
03"
03#
x4
04!
04"
04#
x5
b0 5!
05"
b0 5#
x6
b0 6!
06"
b0 6#
x7
07!
bx 7"
07#
x8
08!
b0 8"
08#
09
b0 9!
09"
09#
1:
b0 :!
0:"
0:#
bx ;
0;!
1;"
1;#
bx <
0<!
b0 <"
1<#
x=
0=!
b0 ="
1=#
0>
0>!
0>"
1>#
bx ?
0?!
0?"
1?#
bx @
0@!
0@"
1@#
xA
0A!
0A"
1A#
0B
0B!
0B"
1B#
b0 C
0C!
1C"
0C#
0D
0D!
b0 D"
0D#
xE
0E!
b0 E"
0E#
bx F
0F!
b0 F"
0F#
bx G
1G!
bx G"
0G#
xH
b0 H!
0H"
0H#
0I
b0 I!
b0 I"
0I#
b0 J
0J!
b0 J"
0J#
b0 K
0K!
0K"
0K#
0L
1L!
0L"
0L#
xM
0M!
1M"
0M#
xN
0N!
0N"
0N#
xO
bx O!
0O"
bx P
0P!
0P"
xQ
0Q!
0Q"
xR
0R!
0R"
bx S
xS!
bx S"
bx T
b1 T!
1T"
xU
b1 U!
0U"
xV
0V!
b0 V"
xW
0W!
b0 W"
bx X
bx X!
0X"
bx Y
xY!
0Y"
xZ
xZ!
0Z"
x[
x[!
0["
bx \
x\!
0\"
bx ]
x]!
1]"
x^
0^!
b0 ^"
bx _
0_!
b0 _"
bx `
bx `!
b0 `"
bx a
0a!
bx a"
bx b
0b!
0b"
xc
xc!
b0 c"
bx d
b0 d!
b0 d"
bx e
0e!
0e"
xf
1f!
0f"
xg
0g!
1g"
bx h
0h!
0h"
bx i
0i!
0i"
xj
0j!
0j"
xk
0k!
0k"
xl
1l!
0l"
xm
0m!
bx m"
bx n
1n!
b1 n"
xo
0o!
b0 o"
xp
1p!
b0 p"
bx q
0q!
b0 q"
bx r
0r!
b0 r"
xs
0s!
0s"
0t
0t!
0t"
1u
0u!
0u"
bx v
b0 v!
0v"
bx w
0w!
0w"
xx
0x!
0x"
0y
0y!
0y"
bx z
b0 z!
0z"
bx {
bx {!
b0 {"
x|
1|!
b0 |"
0}
1}!
b0 }"
b0 ~
b0 ~!
b0 ~"
$end

#5000
1!
1+
1.!
10!
01#
12!
15
16
17
b0 7"
18
19
b1100 ;
x;#
b0 <
1=
b1 ?
b1111 @
1A
xJ#
0N
0O
b0 P
0Q
0R
b0 S
b0 S"
b0 T
0U
1[
b1111 \
b1 ]
1^
b0 _
b1100 `
0l
0m
b0 m"
b0 n
0o
0p
b0 q
b0 r
0s
1t
b1100 v
b0 w
1x
b1 z
b1111 {
1|

#10000
0!
0+
09
0t

#15000
1!
1+
0-!
1.!
0/!
10!
01!
01#
12!
b0 7"
19
xA#
xI#
b0 S"
b1100 a
b0 b
1c
b1 d
b1111 e
1f
b0 m"
1t

#20000
0!
0+
09
0t

#25000
1!
1+
0-!
1.!
0/!
10!
01!
01#
12!
b0 7"
19
b0 S"
b0 m"
1t

#30000
0!
0+
09
0t

#35000
1!
1+
0-!
1.!
0/!
10!
01!
01#
12!
b0 7"
19
b0 S"
b0 m"
1t

#40000
0!
0+
09
0t

#45000
1!
1+
0-!
1.!
0/!
10!
01!
01#
12!
b0 7"
19
b0 S"
b0 m"
1t

#50000
0!
0+
09
0t

#55000
1!
1+
0-!
1.!
0/!
10!
01!
01#
12!
b0 7"
19
b0 S"
b0 m"
1t

#60000
0!
0+
09
0t

#65000
1!
1+
0-!
1.!
0/!
10!
01!
01#
12!
b0 7"
19
b0 S"
b0 m"
1t

#70000
0!
0+
09
0t

#75000
1!
1+
0-!
1.!
0/!
10!
01!
01#
12!
b0 7"
19
b0 S"
b0 m"
1t

#80000
0!
0+
09
0t

#85000
1!
1+
0-!
1.!
0/!
10!
01!
01#
12!
b0 7"
19
b0 S"
b0 m"
1t

#90000
0!
0+
09
0t

#95000
1!
1+
0-!
1.!
0/!
10!
01!
01#
12!
b0 7"
19
b0 S"
b0 m"
1t

#100000
0!
0"
0+
0,
09
0:
0t
0u

#105000
1!
1!!
1+
1-!
0.!
1/!
00!
11!
11#
x2!
12#
b0 7"
19
1>
1B
1D
b0 S"
1_!
b0 m"
1t
1y
1}

#110000
0!
0+
09
0t

#115000
1!
x!!
1"!
1+
0-!
0/!
x1!
02!
b0 7"
19
0=
0>
0A
0B
xD
1E
1N
1O
1Q
b0 S"
1Z
0[
0^
1l
1m
b0 m"
1o
1t
0x
0y
0|
0}

#120000
0!
0+
09
0t

#125000
1!
0!!
0"!
1+
01!
b0 7"
19
0D
0E
0N
0O
xQ
b0 S"
0Z
0c
0f
1g
0l
0m
b0 m"
xo
1t

#130000
0!
0+
09
0t

#135000
1!
1+
b0 7"
19
0Q
b0 S"
0g
b0 m"
0o
1t

#140000
0!
0+
09
0t

#145000
1!
1+
b0 7"
19
b0 S"
b0 m"
1t

#150000
0!
0+
09
0t

#155000
1!
1+
b0 7"
19
b0 S"
b0 m"
1t

#160000
0!
0+
09
0t

#165000
1!
1+
b0 7"
19
b0 S"
b0 m"
1t

#170000
0!
0+
09
0t

#175000
1!
1+
b0 7"
19
b0 S"
b0 m"
1t

#180000
0!
0+
09
0t

#185000
1!
1+
b0 7"
19
b0 S"
b0 m"
1t

#190000
0!
0+
09
0t

#195000
1!
1+
b0 7"
19
b0 S"
b0 m"
1t

#200000
0!
0+
09
0t

#205000
1!
1+
b0 7"
19
b0 S"
b0 m"
1t

#210000
0!
0+
09
0t

#215000
1!
1+
b0 7"
19
b0 S"
b0 m"
1t

#220000
0!
0+
09
0t

#225000
1!
1+
b0 7"
19
b0 S"
b0 m"
1t

#230000
0!
0+
09
0t

#235000
1!
1+
b0 7"
19
b0 S"
b0 m"
1t

#240000
0!
0+
09
0t

#245000
1!
1+
b0 7"
19
b0 S"
b0 m"
1t

#250000
0!
0+
09
0t

#255000
1!
1+
b0 7"
19
b0 S"
b0 m"
1t

#260000
0!
0+
09
0t

#265000
1!
1+
b0 7"
19
b0 S"
b0 m"
1t

#270000
0!
0+
09
0t

#275000
1!
1+
b0 7"
19
b0 S"
b0 m"
1t

#280000
0!
0+
09
0t

#285000
1!
1+
b0 7"
19
b0 S"
b0 m"
1t

#290000
0!
0+
09
0t

#295000
1!
1+
b0 7"
19
b0 S"
b0 m"
1t

#300000
0!
0+
09
0t

#305000
1!
1+
b0 7"
19
b0 S"
b0 m"
1t

#310000
0!
0+
09
0t

#315000
1!
1+
b0 7"
19
b0 S"
b0 m"
1t

#320000
0!
0+
09
0t

#325000
1!
1+
b0 7"
19
b0 S"
b0 m"
1t

#330000
0!
0+
09
0t

#335000
1!
1+
b0 7"
19
b0 S"
b0 m"
1t

#340000
0!
0+
09
0t

#345000
1!
1+
b0 7"
19
b0 S"
b0 m"
1t

#350000
0!
0+
09
0t

#355000
1!
1+
b0 7"
19
b0 S"
b0 m"
1t

#360000
0!
0+
09
0t

#365000
1!
1+
b0 7"
19
b0 S"
b0 m"
1t

#370000
0!
0+
09
0t

#375000
1!
1+
b0 7"
19
b0 S"
b0 m"
1t

#380000
0!
0+
09
0t

#385000
1!
1+
b0 7"
19
b0 S"
b0 m"
1t

#390000
0!
0+
09
0t

#395000
1!
1+
b0 7"
19
b0 S"
b0 m"
1t

#400000
0!
0+
09
0t

#405000
1!
1+
b0 7"
19
b0 S"
b0 m"
1t

#410000
0!
0+
09
0t

#415000
1!
1+
b0 7"
19
b0 S"
b0 m"
1t

#420000
0!
0+
09
0t

#425000
1!
1+
b0 7"
19
b0 S"
b0 m"
1t

#430000
0!
0+
09
0t

#435000
1!
1+
b0 7"
19
b0 S"
b0 m"
1t

#440000
0!
0+
09
0t

#445000
1!
1+
b0 7"
19
b0 S"
b0 m"
1t

#450000
0!
0+
09
0t

#455000
1!
1+
b0 7"
19
b0 S"
b0 m"
1t

#460000
0!
0+
09
0t

#465000
1!
1+
b0 7"
19
b0 S"
b0 m"
1t

#470000
0!
0+
09
0t

#475000
1!
1+
b0 7"
19
b0 S"
b0 m"
1t

#480000
0!
0+
09
0t

#485000
1!
1+
b0 7"
19
b0 S"
b0 m"
1t

#490000
0!
0+
09
0t

#495000
1!
1+
b0 7"
19
b0 S"
b0 m"
1t

#500000
0!
0+
09
0t

#505000
1!
1+
b0 7"
19
b0 S"
b0 m"
1t

#510000
0!
0+
09
0t

#515000
1!
1+
b0 7"
19
b0 S"
b0 m"
1t

#520000
0!
0+
09
0t

#525000
1!
1+
b0 7"
19
b0 S"
b0 m"
1t

#530000
0!
0+
09
0t

#535000
1!
1+
b0 7"
19
b0 S"
b0 m"
1t

#540000
0!
0+
09
0t

#545000
1!
1+
b0 7"
19
b0 S"
b0 m"
1t

#550000
0!
0+
09
0t

#555000
1!
1+
b0 7"
19
b0 S"
b0 m"
1t

#560000
0!
0+
09
0t

#565000
1!
1+
b0 7"
19
b0 S"
b0 m"
1t

#570000
0!
0+
09
0t

#575000
1!
1+
b0 7"
19
b0 S"
b0 m"
1t

#580000
0!
0+
09
0t

#585000
1!
1+
b0 7"
19
b0 S"
b0 m"
1t

#590000
0!
0+
09
0t

#595000
1!
1+
b0 7"
19
b0 S"
b0 m"
1t

#600000
0!
0+
09
0t

#605000
1!
1+
b0 7"
19
b0 S"
b0 m"
1t

#610000
0!
0+
09
0t

#615000
1!
1+
b0 7"
19
b0 S"
b0 m"
1t

#620000
0!
0+
09
0t

#625000
1!
1+
b0 7"
19
b0 S"
b0 m"
1t

#630000
0!
0+
09
0t

#635000
1!
1+
b0 7"
19
b0 S"
b0 m"
1t

#640000
0!
0+
09
0t

#645000
1!
1+
b0 7"
19
b0 S"
b0 m"
1t

#650000
0!
0+
09
0t

#655000
1!
1+
b0 7"
19
b0 S"
b0 m"
1t

#660000
0!
0+
09
0t

#665000
1!
1+
b0 7"
19
b0 S"
b0 m"
1t

#670000
0!
0+
09
0t

#675000
1!
1+
b0 7"
19
b0 S"
b0 m"
1t

#680000
0!
0+
09
0t

#685000
1!
1+
b0 7"
19
b0 S"
b0 m"
1t

#690000
0!
0+
09
0t

#695000
1!
1+
b0 7"
19
b0 S"
b0 m"
1t

#700000
0!
0+
09
0t

#705000
1!
1+
b0 7"
19
b0 S"
b0 m"
1t

#710000
0!
0+
09
0t

#715000
1!
1+
b0 7"
19
b0 S"
b0 m"
1t

#720000
0!
0+
09
0t

#725000
1!
1+
b0 7"
19
b0 S"
b0 m"
1t

#730000
0!
0+
09
0t

#735000
1!
1+
b0 7"
19
b0 S"
b0 m"
1t

#740000
0!
0+
09
0t

#745000
1!
1+
b0 7"
19
b0 S"
b0 m"
1t

#750000
0!
0+
09
0t

#755000
1!
1+
b0 7"
19
b0 S"
b0 m"
1t

#760000
0!
0+
09
0t

#765000
1!
1+
b0 7"
19
b0 S"
b0 m"
1t

#770000
0!
0+
09
0t

#775000
1!
1+
b0 7"
19
b0 S"
b0 m"
1t

#780000
0!
0+
09
0t

#785000
1!
1+
b0 7"
19
b0 S"
b0 m"
1t

#790000
0!
0+
09
0t

#795000
1!
1+
b0 7"
19
b0 S"
b0 m"
1t

#800000
0!
0+
09
0t

#805000
1!
1+
b0 7"
19
b0 S"
b0 m"
1t

#810000
0!
0+
09
0t

#815000
1!
1+
b0 7"
19
b0 S"
b0 m"
1t

#820000
0!
0+
09
0t

#825000
1!
1+
b0 7"
19
b0 S"
b0 m"
1t

#830000
0!
0+
09
0t

#835000
1!
1+
b0 7"
19
b0 S"
b0 m"
1t

#840000
0!
0+
09
0t

#845000
1!
1+
b0 7"
19
b0 S"
b0 m"
1t

#850000
0!
0+
09
0t

#855000
1!
1+
b0 7"
19
b0 S"
b0 m"
1t

#860000
0!
0+
09
0t

#865000
1!
1+
b0 7"
19
b0 S"
b0 m"
1t

#870000
0!
0+
09
0t

#875000
1!
1+
b0 7"
19
b0 S"
b0 m"
1t

#880000
0!
0+
09
0t

#885000
1!
1+
b0 7"
19
b0 S"
b0 m"
1t

#890000
0!
0+
09
0t

#895000
1!
1+
b0 7"
19
b0 S"
b0 m"
1t

#900000
0!
0+
09
0t

#905000
1!
1+
b0 7"
19
b0 S"
b0 m"
1t

#910000
0!
0+
09
0t

#915000
1!
1+
b0 7"
19
b0 S"
b0 m"
1t

#920000
0!
0+
09
0t

#925000
1!
1+
b0 7"
19
b0 S"
b0 m"
1t

#930000
0!
0+
09
0t

#935000
1!
1+
b0 7"
19
b0 S"
b0 m"
1t

#940000
0!
0+
09
0t

#945000
1!
1+
b0 7"
19
b0 S"
b0 m"
1t

#950000
0!
0+
09
0t

#955000
1!
1+
b0 7"
19
b0 S"
b0 m"
1t

#960000
0!
0+
09
0t

#965000
1!
1+
b0 7"
19
b0 S"
b0 m"
1t

#970000
0!
0+
09
0t

#975000
1!
1+
b0 7"
19
b0 S"
b0 m"
1t

#980000
0!
0+
09
0t

#985000
1!
1+
b0 7"
19
b0 S"
b0 m"
1t

#990000
0!
0+
09
0t

#995000
1!
1+
b0 7"
19
b0 S"
b0 m"
1t

