build/dump.vcd
$date
   Tue Nov  5 15:49:00 2024
$end

$version
  2024.1
  $dumpfile ("dump.vcd") 
$end

$timescale
  1ps
$end

$scope module tb_top $end
$var reg 1 ! clk $end
$var reg 1 " rst $end
$var wire 1 # scl_dut_i $end
$var wire 1 $ scl_dut_o $end
$var wire 1 % scl_tb_i $end
$var wire 1 & scl_tb_o $end
$var wire 1 ' sda_dut_i $end
$var wire 1 ( sda_dut_o $end
$var wire 1 ) sda_tb_i $end
$var wire 1 * sda_tb_o $end
$var wire 1 + scl_bus $end
$var wire 1 , sda_bus $end
$scope module i2c_vif $end
$var wire 1 - clk $end
$var wire 1 . rst $end
$var reg 1 / scl_i $end
$var reg 1 0 scl_o $end
$var reg 1 1 scl_t $end
$var reg 1 2 sda_i $end
$var reg 1 3 sda_o $end
$var reg 1 4 sda_t $end
$scope module driver $end
$upscope $end
$scope module monitor $end
$upscope $end
$scope module monitor_cb $end
$var reg 1 5 scl_i $end
$var reg 1 6 scl_o $end
$var reg 1 7 scl_t $end
$var reg 1 8 sda_i $end
$var reg 1 9 sda_o $end
$var reg 1 : sda_t $end
$upscope $end
$upscope $end
$scope module axil_vif $end
$var wire 1 ; clk $end
$var wire 1 < rst $end
$var reg 4 = awaddr [3:0] $end
$var reg 3 > awprot [2:0] $end
$var reg 1 ? awvalid $end
$var reg 1 @ awready $end
$var reg 32 A wdata [31:0] $end
$var reg 4 B wstrb [3:0] $end
$var reg 1 C wvalid $end
$var reg 1 D wready $end
$var reg 2 E bresp [1:0] $end
$var reg 1 F bvalid $end
$var reg 1 G bready $end
$var reg 4 H araddr [3:0] $end
$var reg 3 I arprot [2:0] $end
$var reg 1 J arvalid $end
$var reg 1 K arready $end
$var reg 32 L rdata [31:0] $end
$var reg 2 M rresp [1:0] $end
$var reg 1 N rvalid $end
$var reg 1 O rready $end
$scope module driver $end
$upscope $end
$scope module monitor $end
$upscope $end
$scope module driver_cb $end
$var reg 1 P awready $end
$var reg 1 Q wready $end
$var reg 2 R bresp [1:0] $end
$var reg 1 S bvalid $end
$var reg 1 T arready $end
$var reg 32 U rdata [31:0] $end
$var reg 2 V rresp [1:0] $end
$var reg 1 W rvalid $end
$var reg 1 X rready $end
$var reg 1 Y arvalid $end
$var reg 3 Z arprot [2:0] $end
$var reg 4 [ araddr [3:0] $end
$var reg 1 \ bready $end
$var reg 1 ] wvalid $end
$var reg 4 ^ wstrb [3:0] $end
$var reg 32 _ wdata [31:0] $end
$var reg 1 ` awvalid $end
$var reg 3 a awprot [2:0] $end
$var reg 4 b awaddr [3:0] $end
$upscope $end
$scope module monitor_cb $end
$var reg 4 c awaddr [3:0] $end
$var reg 3 d awprot [2:0] $end
$var reg 1 e awvalid $end
$var reg 32 f wdata [31:0] $end
$var reg 4 g wstrb [3:0] $end
$var reg 1 h wvalid $end
$var reg 1 i bready $end
$var reg 4 j araddr [3:0] $end
$var reg 3 k arprot [2:0] $end
$var reg 1 l arvalid $end
$var reg 1 m rready $end
$var reg 1 n awready $end
$var reg 1 o wready $end
$var reg 2 p bresp [1:0] $end
$var reg 1 q bvalid $end
$var reg 1 r arready $end
$var reg 32 s rdata [31:0] $end
$var reg 2 t rresp [1:0] $end
$var reg 1 u rvalid $end
$upscope $end
$upscope $end
$scope module dut $end
$var wire 1 v clk $end
$var wire 1 w rst $end
$var wire 4 x s_axil_awaddr [3:0] $end
$var wire 3 y s_axil_awprot [2:0] $end
$var wire 1 z s_axil_awvalid $end
$var wire 1 { s_axil_awready $end
$var wire 32 | s_axil_wdata [31:0] $end
$var wire 4 } s_axil_wstrb [3:0] $end
$var wire 1 ~ s_axil_wvalid $end
$var wire 1 !! s_axil_wready $end
$var wire 2 "! s_axil_bresp [1:0] $end
$var wire 1 #! s_axil_bvalid $end
$var wire 1 $! s_axil_bready $end
$var wire 4 %! s_axil_araddr [3:0] $end
$var wire 3 &! s_axil_arprot [2:0] $end
$var wire 1 '! s_axil_arvalid $end
$var wire 1 (! s_axil_arready $end
$var wire 32 )! s_axil_rdata [31:0] $end
$var wire 2 *! s_axil_rresp [1:0] $end
$var wire 1 +! s_axil_rvalid $end
$var wire 1 ,! s_axil_rready $end
$var wire 1 # i2c_scl_i $end
$var wire 1 $ i2c_scl_o $end
$var wire 1 -! i2c_scl_t $end
$var wire 1 ' i2c_sda_i $end
$var wire 1 ( i2c_sda_o $end
$var wire 1 .! i2c_sda_t $end
$var reg 1 /! s_axil_awready_reg $end
$var reg 1 0! s_axil_awready_next $end
$var reg 1 1! s_axil_wready_reg $end
$var reg 1 2! s_axil_wready_next $end
$var reg 1 3! s_axil_bvalid_reg $end
$var reg 1 4! s_axil_bvalid_next $end
$var reg 1 5! s_axil_arready_reg $end
$var reg 1 6! s_axil_arready_next $end
$var reg 32 7! s_axil_rdata_reg [31:0] $end
$var reg 32 8! s_axil_rdata_next [31:0] $end
$var reg 1 9! s_axil_rvalid_reg $end
$var reg 1 :! s_axil_rvalid_next $end
$var reg 7 ;! cmd_address_reg [6:0] $end
$var reg 7 <! cmd_address_next [6:0] $end
$var reg 1 =! cmd_start_reg $end
$var reg 1 >! cmd_start_next $end
$var reg 1 ?! cmd_read_reg $end
$var reg 1 @! cmd_read_next $end
$var reg 1 A! cmd_write_reg $end
$var reg 1 B! cmd_write_next $end
$var reg 1 C! cmd_write_multiple_reg $end
$var reg 1 D! cmd_write_multiple_next $end
$var reg 1 E! cmd_stop_reg $end
$var reg 1 F! cmd_stop_next $end
$var reg 1 G! cmd_valid_reg $end
$var reg 1 H! cmd_valid_next $end
$var wire 1 I! cmd_ready $end
$var reg 8 J! data_in_reg [7:0] $end
$var reg 8 K! data_in_next [7:0] $end
$var reg 1 L! data_in_valid_reg $end
$var reg 1 M! data_in_valid_next $end
$var wire 1 N! data_in_ready $end
$var reg 1 O! data_in_last_reg $end
$var reg 1 P! data_in_last_next $end
$var wire 8 Q! data_out [7:0] $end
$var wire 1 R! data_out_valid $end
$var reg 1 S! data_out_ready_reg $end
$var reg 1 T! data_out_ready_next $end
$var wire 1 U! data_out_last $end
$var reg 16 V! prescale_reg [15:0] $end
$var reg 16 W! prescale_next [15:0] $end
$var reg 1 X! missed_ack_reg $end
$var reg 1 Y! missed_ack_next $end
$var wire 7 Z! cmd_address_int [6:0] $end
$var wire 1 [! cmd_start_int $end
$var wire 1 \! cmd_read_int $end
$var wire 1 ]! cmd_write_int $end
$var wire 1 ^! cmd_write_multiple_int $end
$var wire 1 _! cmd_stop_int $end
$var wire 1 `! cmd_valid_int $end
$var wire 1 a! cmd_ready_int $end
$var wire 8 b! data_in_int [7:0] $end
$var wire 1 c! data_in_valid_int $end
$var wire 1 d! data_in_ready_int $end
$var wire 1 e! data_in_last_int $end
$var wire 8 f! data_out_int [7:0] $end
$var wire 1 g! data_out_valid_int $end
$var wire 1 h! data_out_ready_int $end
$var wire 1 i! data_out_last_int $end
$var wire 1 j! busy_int $end
$var wire 1 k! bus_control_int $end
$var wire 1 l! bus_active_int $end
$var wire 1 m! missed_ack_int $end
$var wire 1 n! cmd_fifo_empty $end
$var wire 1 o! cmd_fifo_full $end
$var wire 1 p! write_fifo_empty $end
$var wire 1 q! write_fifo_full $end
$var wire 1 r! read_fifo_empty $end
$var wire 1 s! read_fifo_full $end
$var reg 1 t! cmd_fifo_overflow_reg $end
$var reg 1 u! cmd_fifo_overflow_next $end
$var reg 1 v! write_fifo_overflow_reg $end
$var reg 1 w! write_fifo_overflow_next $end
$scope module genblk1.cmd_fifo_inst $end
$var wire 1 v clk $end
$var wire 1 w rst $end
$var wire 12 x! s_axis_tdata [11:0] $end
$var wire 1 y! s_axis_tkeep [0:0] $end
$var wire 1 z! s_axis_tvalid $end
$var wire 1 I! s_axis_tready $end
$var wire 1 {! s_axis_tlast $end
$var wire 8 |! s_axis_tid [7:0] $end
$var wire 8 |! s_axis_tdest [7:0] $end
$var wire 1 {! s_axis_tuser [0:0] $end
$var wire 12 }! m_axis_tdata [11:0] $end
$var wire 1 ~! m_axis_tkeep [0:0] $end
$var wire 1 `! m_axis_tvalid $end
$var wire 1 a! m_axis_tready $end
$var wire 1 !" m_axis_tlast $end
$var wire 8 "" m_axis_tid [7:0] $end
$var wire 8 #" m_axis_tdest [7:0] $end
$var wire 1 $" m_axis_tuser [0:0] $end
$var wire 1 %" status_overflow $end
$var wire 1 &" status_bad_frame $end
$var wire 1 '" status_good_frame $end
$var wire 1 (" status_full $end
$var wire 1 )" status_empty $end
$var reg 6 *" wr_ptr_reg [5:0] $end
$var reg 6 +" wr_ptr_cur_reg [5:0] $end
$var reg 6 ," rd_ptr_reg [5:0] $end
$var reg 12 -" mem_read_data_reg [11:0] $end
$var reg 1 ." mem_read_data_valid_reg $end
$var wire 12 /" s_axis [11:0] $end
$var reg 2 0" m_axis_tvalid_pipe_reg [1:0] $end
$var wire 1 1" full $end
$var wire 1 2" full_cur $end
$var wire 1 3" empty $end
$var wire 1 4" full_wr $end
$var reg 1 5" drop_frame_reg $end
$var reg 1 6" overflow_reg $end
$var reg 1 7" bad_frame_reg $end
$var reg 1 8" good_frame_reg $end
$var integer 32 9" j [31:0] $end
$upscope $end
$scope module genblk2.write_fifo_inst $end
$var wire 1 v clk $end
$var wire 1 w rst $end
$var wire 8 :" s_axis_tdata [7:0] $end
$var wire 1 y! s_axis_tkeep [0:0] $end
$var wire 1 ;" s_axis_tvalid $end
$var wire 1 N! s_axis_tready $end
$var wire 1 <" s_axis_tlast $end
$var wire 8 |! s_axis_tid [7:0] $end
$var wire 8 |! s_axis_tdest [7:0] $end
$var wire 1 {! s_axis_tuser [0:0] $end
$var wire 8 b! m_axis_tdata [7:0] $end
$var wire 1 =" m_axis_tkeep [0:0] $end
$var wire 1 c! m_axis_tvalid $end
$var wire 1 d! m_axis_tready $end
$var wire 1 e! m_axis_tlast $end
$var wire 8 >" m_axis_tid [7:0] $end
$var wire 8 ?" m_axis_tdest [7:0] $end
$var wire 1 @" m_axis_tuser [0:0] $end
$var wire 1 A" status_overflow $end
$var wire 1 B" status_bad_frame $end
$var wire 1 C" status_good_frame $end
$var wire 1 D" status_full $end
$var wire 1 E" status_empty $end
$var reg 6 F" wr_ptr_reg [5:0] $end
$var reg 6 G" wr_ptr_cur_reg [5:0] $end
$var reg 6 H" rd_ptr_reg [5:0] $end
$var reg 9 I" mem_read_data_reg [8:0] $end
$var reg 1 J" mem_read_data_valid_reg $end
$var wire 9 K" s_axis [8:0] $end
$var reg 2 L" m_axis_tvalid_pipe_reg [1:0] $end
$var wire 1 M" full $end
$var wire 1 N" full_cur $end
$var wire 1 O" empty $end
$var wire 1 P" full_wr $end
$var reg 1 Q" drop_frame_reg $end
$var reg 1 R" overflow_reg $end
$var reg 1 S" bad_frame_reg $end
$var reg 1 T" good_frame_reg $end
$var integer 32 U" j [31:0] $end
$upscope $end
$scope module genblk3.read_fifo_inst $end
$var wire 1 v clk $end
$var wire 1 w rst $end
$var wire 8 f! s_axis_tdata [7:0] $end
$var wire 1 y! s_axis_tkeep [0:0] $end
$var wire 1 g! s_axis_tvalid $end
$var wire 1 h! s_axis_tready $end
$var wire 1 i! s_axis_tlast $end
$var wire 8 |! s_axis_tid [7:0] $end
$var wire 8 |! s_axis_tdest [7:0] $end
$var wire 1 y! s_axis_tuser [0:0] $end
$var wire 8 Q! m_axis_tdata [7:0] $end
$var wire 1 V" m_axis_tkeep [0:0] $end
$var wire 1 R! m_axis_tvalid $end
$var wire 1 W" m_axis_tready $end
$var wire 1 U! m_axis_tlast $end
$var wire 8 X" m_axis_tid [7:0] $end
$var wire 8 Y" m_axis_tdest [7:0] $end
$var wire 1 Z" m_axis_tuser [0:0] $end
$var wire 1 [" status_overflow $end
$var wire 1 \" status_bad_frame $end
$var wire 1 ]" status_good_frame $end
$var wire 1 ^" status_full $end
$var wire 1 _" status_empty $end
$var reg 6 `" wr_ptr_reg [5:0] $end
$var reg 6 a" wr_ptr_cur_reg [5:0] $end
$var reg 6 b" rd_ptr_reg [5:0] $end
$var reg 9 c" mem_read_data_reg [8:0] $end
$var reg 1 d" mem_read_data_valid_reg $end
$var wire 9 e" s_axis [8:0] $end
$var reg 2 f" m_axis_tvalid_pipe_reg [1:0] $end
$var wire 1 g" full $end
$var wire 1 h" full_cur $end
$var wire 1 i" empty $end
$var wire 1 j" full_wr $end
$var reg 1 k" drop_frame_reg $end
$var reg 1 l" overflow_reg $end
$var reg 1 m" bad_frame_reg $end
$var reg 1 n" good_frame_reg $end
$var integer 32 o" j [31:0] $end
$upscope $end
$scope module i2c_master_inst $end
$var wire 1 v clk $end
$var wire 1 w rst $end
$var wire 7 Z! s_axis_cmd_address [6:0] $end
$var wire 1 [! s_axis_cmd_start $end
$var wire 1 \! s_axis_cmd_read $end
$var wire 1 ]! s_axis_cmd_write $end
$var wire 1 ^! s_axis_cmd_write_multiple $end
$var wire 1 _! s_axis_cmd_stop $end
$var wire 1 `! s_axis_cmd_valid $end
$var wire 1 a! s_axis_cmd_ready $end
$var wire 8 b! s_axis_data_tdata [7:0] $end
$var wire 1 c! s_axis_data_tvalid $end
$var wire 1 d! s_axis_data_tready $end
$var wire 1 e! s_axis_data_tlast $end
$var wire 8 f! m_axis_data_tdata [7:0] $end
$var wire 1 g! m_axis_data_tvalid $end
$var wire 1 h! m_axis_data_tready $end
$var wire 1 i! m_axis_data_tlast $end
$var wire 1 # scl_i $end
$var wire 1 $ scl_o $end
$var wire 1 -! scl_t $end
$var wire 1 ' sda_i $end
$var wire 1 ( sda_o $end
$var wire 1 .! sda_t $end
$var wire 1 j! busy $end
$var wire 1 k! bus_control $end
$var wire 1 l! bus_active $end
$var wire 1 m! missed_ack $end
$var wire 16 p" prescale [15:0] $end
$var wire 1 {! stop_on_idle $end
$var reg 5 q" state_reg [4:0] $end
$var reg 5 r" state_next [4:0] $end
$var reg 5 s" phy_state_reg [4:0] $end
$var reg 5 t" phy_state_next [4:0] $end
$var reg 1 u" phy_start_bit $end
$var reg 1 v" phy_stop_bit $end
$var reg 1 w" phy_write_bit $end
$var reg 1 x" phy_read_bit $end
$var reg 1 y" phy_release_bus $end
$var reg 1 z" phy_tx_data $end
$var reg 1 {" phy_rx_data_reg $end
$var reg 1 |" phy_rx_data_next $end
$var reg 7 }" addr_reg [6:0] $end
$var reg 7 ~" addr_next [6:0] $end
$var reg 8 !# data_reg [7:0] $end
$var reg 8 "# data_next [7:0] $end
$var reg 1 ## last_reg $end
$var reg 1 $# last_next $end
$var reg 1 %# mode_read_reg $end
$var reg 1 &# mode_read_next $end
$var reg 1 '# mode_write_multiple_reg $end
$var reg 1 (# mode_write_multiple_next $end
$var reg 1 )# mode_stop_reg $end
$var reg 1 *# mode_stop_next $end
$var reg 17 +# delay_reg [16:0] $end
$var reg 17 ,# delay_next [16:0] $end
$var reg 1 -# delay_scl_reg $end
$var reg 1 .# delay_scl_next $end
$var reg 1 /# delay_sda_reg $end
$var reg 1 0# delay_sda_next $end
$var reg 4 1# bit_count_reg [3:0] $end
$var reg 4 2# bit_count_next [3:0] $end
$var reg 1 3# s_axis_cmd_ready_reg $end
$var reg 1 4# s_axis_cmd_ready_next $end
$var reg 1 5# s_axis_data_tready_reg $end
$var reg 1 6# s_axis_data_tready_next $end
$var reg 8 7# m_axis_data_tdata_reg [7:0] $end
$var reg 8 8# m_axis_data_tdata_next [7:0] $end
$var reg 1 9# m_axis_data_tvalid_reg $end
$var reg 1 :# m_axis_data_tvalid_next $end
$var reg 1 ;# m_axis_data_tlast_reg $end
$var reg 1 <# m_axis_data_tlast_next $end
$var reg 1 =# scl_i_reg $end
$var reg 1 ># sda_i_reg $end
$var reg 1 ?# scl_o_reg $end
$var reg 1 @# scl_o_next $end
$var reg 1 A# sda_o_reg $end
$var reg 1 B# sda_o_next $end
$var reg 1 C# last_scl_i_reg $end
$var reg 1 D# last_sda_i_reg $end
$var reg 1 E# busy_reg $end
$var reg 1 F# bus_active_reg $end
$var reg 1 G# bus_control_reg $end
$var reg 1 H# bus_control_next $end
$var reg 1 I# missed_ack_reg $end
$var reg 1 J# missed_ack_next $end
$var wire 1 K# scl_posedge $end
$var wire 1 L# scl_negedge $end
$var wire 1 M# sda_posedge $end
$var wire 1 N# sda_negedge $end
$var wire 1 O# start_bit $end
$var wire 1 P# stop_bit $end
$upscope $end
$upscope $end
$upscope $end
$enddefinitions $end

#0
$dumpvars
0!
0!!
1!"
b0 !#
1"
b0 "!
b0 ""
b0 "#
1#
0#!
b0 #"
0##
1$
x$!
0$"
0$#
1%
bx %!
0%"
0%#
1&
bx &!
0&"
0&#
1'
x'!
0'"
0'#
1(
0(!
0("
0(#
1)
b0 )!
1)"
0)#
1*
b0 *!
b0 *"
0*#
1+
0+!
b0 +"
b0 +#
1,
x,!
b0 ,"
b0 ,#
0-
1-!
bx -"
0-#
1.
1.!
0."
0.#
1/
0/!
b0 /"
0/#
10
00!
b0 0"
00#
11
01!
01"
b0 1#
12
02!
02"
b0 2#
13
03!
13"
03#
14
04!
04"
14#
x5
05!
05"
05#
x6
06!
06"
06#
x7
b0 7!
07"
b0 7#
x8
b0 8!
08"
b0 8#
x9
09!
bx 9"
09#
x:
0:!
b0 :"
0:#
0;
b0 ;!
0;"
0;#
1<
b0 <!
0<"
0<#
bx =
0=!
1="
1=#
bx >
0>!
b0 >"
1>#
x?
0?!
b0 ?"
1?#
0@
0@!
0@"
1@#
bx A
0A!
0A"
1A#
bx B
0B!
0B"
1B#
xC
0C!
0C"
1C#
0D
0D!
0D"
1D#
b0 E
0E!
1E"
0E#
0F
0F!
b0 F"
0F#
xG
0G!
b0 G"
0G#
bx H
0H!
b0 H"
0H#
bx I
1I!
bx I"
0I#
xJ
b0 J!
0J"
0J#
0K
b0 K!
b0 K"
0K#
b0 L
0L!
b0 L"
0L#
b0 M
0M!
0M"
0M#
0N
1N!
0N"
0N#
xO
0O!
1O"
0O#
xP
0P!
0P"
0P#
xQ
bx Q!
0Q"
bx R
0R!
0R"
xS
0S!
0S"
xT
0T!
0T"
bx U
xU!
bx U"
bx V
b1 V!
1V"
xW
b1 W!
0W"
xX
0X!
b0 X"
xY
0Y!
b0 Y"
bx Z
bx Z!
0Z"
bx [
x[!
0["
x\
x\!
0\"
x]
x]!
0]"
bx ^
x^!
0^"
bx _
x_!
1_"
x`
0`!
b0 `"
bx a
0a!
b0 a"
bx b
bx b!
b0 b"
bx c
0c!
bx c"
bx d
0d!
0d"
xe
xe!
b0 e"
bx f
b0 f!
b0 f"
bx g
0g!
0g"
xh
1h!
0h"
xi
0i!
1i"
bx j
0j!
0j"
bx k
0k!
0k"
xl
0l!
0l"
xm
0m!
0m"
xn
1n!
0n"
xo
0o!
bx o"
bx p
1p!
b1 p"
xq
0q!
b0 q"
xr
1r!
b0 r"
bx s
0s!
b0 s"
bx t
0t!
b0 t"
xu
0u!
0u"
0v
0v!
0v"
1w
0w!
0w"
bx x
b0 x!
0x"
bx y
0y!
0y"
xz
0z!
0z"
0{
0{!
0{"
bx |
b0 |!
0|"
bx }
bx }!
b0 }"
x~
1~!
b0 ~"
$end

#5000
1!
1-
10!
12!
03#
14!
15
16
17
18
19
b0 9"
1:
1;
b1100 =
b0 >
1?
b1 A
b1111 B
1C
0P
0Q
b0 R
0S
0T
b0 U
b0 U"
b0 V
0W
1]
b1111 ^
b1 _
1`
b0 a
b1100 b
0n
0o
b0 o"
b0 p
0q
0r
b0 s
b0 t
0u
1v
b1100 x
b0 y
1z
b1 |
b1111 }
1~

#10000
0!
0-
0;
0v

#15000
1!
1-
0/!
10!
01!
12!
03!
03#
14!
b0 9"
1;
b0 U"
b1100 c
b0 d
1e
b1 f
b1111 g
1h
b0 o"
1v

#20000
0!
0-
0;
0v

#25000
1!
1-
0/!
10!
01!
12!
03!
03#
14!
b0 9"
1;
b0 U"
b0 o"
1v

#30000
0!
0-
0;
0v

#35000
1!
1-
0/!
10!
01!
12!
03!
03#
14!
b0 9"
1;
b0 U"
b0 o"
1v

#40000
0!
0-
0;
0v

#45000
1!
1-
0/!
10!
01!
12!
03!
03#
14!
b0 9"
1;
b0 U"
b0 o"
1v

#50000
0!
0-
0;
0v

#55000
1!
1-
0/!
10!
01!
12!
03!
03#
14!
b0 9"
1;
b0 U"
b0 o"
1v

#60000
0!
0-
0;
0v

#65000
1!
1-
0/!
10!
01!
12!
03!
03#
14!
b0 9"
1;
b0 U"
b0 o"
1v

#70000
0!
0-
0;
0v

#75000
1!
1-
0/!
10!
01!
12!
03!
03#
14!
b0 9"
1;
b0 U"
b0 o"
1v

#80000
0!
0-
0;
0v

#85000
1!
1-
0/!
10!
01!
12!
03!
03#
14!
b0 9"
1;
b0 U"
b0 o"
1v

#90000
0!
0-
0;
0v

#95000
1!
1-
0/!
10!
01!
12!
03!
03#
14!
b0 9"
1;
b0 U"
b0 o"
1v

#100000
0!
0"
0-
0.
0;
0<
0v
0w

#105000
1!
1!!
1#!
1-
1/!
00!
11!
02!
13!
13#
x4!
14#
b0 9"
1;
1@
1D
1F
b0 U"
1a!
b0 o"
1v
1{

#110000
0!
0-
0;
0v

#115000
1!
0!!
x#!
1$!
1-
0/!
01!
x3!
04!
b0 9"
1;
0?
0@
0C
0D
xF
1G
1P
1Q
1S
b0 U"
1\
0]
0`
1n
1o
b0 o"
1q
1v
0z
0{
0~

#120000
0!
0-
0;
0v

#125000
1!
0#!
0$!
1-
03!
b0 9"
1;
0F
0G
0P
0Q
xS
b0 U"
0\
0e
0h
1i
0n
0o
b0 o"
xq
1v

#130000
0!
0-
0;
0v

#135000
1!
1-
b0 9"
1;
0S
b0 U"
0i
b0 o"
0q
1v

#140000
0!
0-
0;
0v

#145000
1!
1-
b0 9"
1;
b0 U"
b0 o"
1v

#150000
0!
0-
0;
0v

#155000
1!
1-
b0 9"
1;
b0 U"
b0 o"
1v

#160000
0!
0-
0;
0v

#165000
1!
1-
b0 9"
1;
b0 U"
b0 o"
1v

#170000
0!
0-
0;
0v

#175000
1!
1-
b0 9"
1;
b0 U"
b0 o"
1v

#180000
0!
0-
0;
0v

#185000
1!
1-
b0 9"
1;
b0 U"
b0 o"
1v

#190000
0!
0-
0;
0v

#195000
1!
1-
b0 9"
1;
b0 U"
b0 o"
1v

#200000
0!
0-
0;
0v

#205000
1!
1-
b0 9"
1;
b0 U"
b0 o"
1v

#210000
0!
0-
0;
0v

#215000
1!
1-
b0 9"
1;
b0 U"
b0 o"
1v

#220000
0!
0-
0;
0v

#225000
1!
1-
b0 9"
1;
b0 U"
b0 o"
1v

#230000
0!
0-
0;
0v

#235000
1!
1-
b0 9"
1;
b0 U"
b0 o"
1v

#240000
0!
0-
0;
0v

#245000
1!
1-
b0 9"
1;
b0 U"
b0 o"
1v

#250000
0!
0-
0;
0v

#255000
1!
1-
b0 9"
1;
b0 U"
b0 o"
1v

#260000
0!
0-
0;
0v

#265000
1!
1-
b0 9"
1;
b0 U"
b0 o"
1v

#270000
0!
0-
0;
0v

#275000
1!
1-
b0 9"
1;
b0 U"
b0 o"
1v

#280000
0!
0-
0;
0v

#285000
1!
1-
b0 9"
1;
b0 U"
b0 o"
1v

#290000
0!
0-
0;
0v

#295000
1!
1-
b0 9"
1;
b0 U"
b0 o"
1v

#300000
0!
0-
0;
0v

#305000
1!
1-
b0 9"
1;
b0 U"
b0 o"
1v

#310000
0!
0-
0;
0v

#315000
1!
1-
b0 9"
1;
b0 U"
b0 o"
1v

#320000
0!
0-
0;
0v

#325000
1!
1-
b0 9"
1;
b0 U"
b0 o"
1v

#330000
0!
0-
0;
0v

#335000
1!
1-
b0 9"
1;
b0 U"
b0 o"
1v

#340000
0!
0-
0;
0v

#345000
1!
1-
b0 9"
1;
b0 U"
b0 o"
1v

#350000
0!
0-
0;
0v

#355000
1!
1-
b0 9"
1;
b0 U"
b0 o"
1v

#360000
0!
0-
0;
0v

#365000
1!
1-
b0 9"
1;
b0 U"
b0 o"
1v

#370000
0!
0-
0;
0v

#375000
1!
1-
b0 9"
1;
b0 U"
b0 o"
1v

#380000
0!
0-
0;
0v

#385000
1!
1-
b0 9"
1;
b0 U"
b0 o"
1v

#390000
0!
0-
0;
0v

#395000
1!
1-
b0 9"
1;
b0 U"
b0 o"
1v

#400000
0!
0-
0;
0v

#405000
1!
1-
b0 9"
1;
b0 U"
b0 o"
1v

#410000
0!
0-
0;
0v

#415000
1!
1-
b0 9"
1;
b0 U"
b0 o"
1v

#420000
0!
0-
0;
0v

#425000
1!
1-
b0 9"
1;
b0 U"
b0 o"
1v

#430000
0!
0-
0;
0v

#435000
1!
1-
b0 9"
1;
b0 U"
b0 o"
1v

#440000
0!
0-
0;
0v

#445000
1!
1-
b0 9"
1;
b0 U"
b0 o"
1v

#450000
0!
0-
0;
0v

#455000
1!
1-
b0 9"
1;
b0 U"
b0 o"
1v

#460000
0!
0-
0;
0v

#465000
1!
1-
b0 9"
1;
b0 U"
b0 o"
1v

#470000
0!
0-
0;
0v

#475000
1!
1-
b0 9"
1;
b0 U"
b0 o"
1v

#480000
0!
0-
0;
0v

#485000
1!
1-
b0 9"
1;
b0 U"
b0 o"
1v

#490000
0!
0-
0;
0v

#495000
1!
1-
b0 9"
1;
b0 U"
b0 o"
1v

#500000
0!
0-
0;
0v

#505000
1!
1-
b0 9"
1;
b0 U"
b0 o"
1v

#510000
0!
0-
0;
0v

#515000
1!
1-
b0 9"
1;
b0 U"
b0 o"
1v

#520000
0!
0-
0;
0v

#525000
1!
1-
b0 9"
1;
b0 U"
b0 o"
1v

#530000
0!
0-
0;
0v

#535000
1!
1-
b0 9"
1;
b0 U"
b0 o"
1v

#540000
0!
0-
0;
0v

#545000
1!
1-
b0 9"
1;
b0 U"
b0 o"
1v

#550000
0!
0-
0;
0v

#555000
1!
1-
b0 9"
1;
b0 U"
b0 o"
1v

#560000
0!
0-
0;
0v

#565000
1!
1-
b0 9"
1;
b0 U"
b0 o"
1v

#570000
0!
0-
0;
0v

#575000
1!
1-
b0 9"
1;
b0 U"
b0 o"
1v

#580000
0!
0-
0;
0v

#585000
1!
1-
b0 9"
1;
b0 U"
b0 o"
1v

#590000
0!
0-
0;
0v

#595000
1!
1-
b0 9"
1;
b0 U"
b0 o"
1v

#600000
0!
0-
0;
0v

#605000
1!
1-
b0 9"
1;
b0 U"
b0 o"
1v

#610000
0!
0-
0;
0v

#615000
1!
1-
b0 9"
1;
b0 U"
b0 o"
1v

#620000
0!
0-
0;
0v

#625000
1!
1-
b0 9"
1;
b0 U"
b0 o"
1v

#630000
0!
0-
0;
0v

#635000
1!
1-
b0 9"
1;
b0 U"
b0 o"
1v

#640000
0!
0-
0;
0v

#645000
1!
1-
b0 9"
1;
b0 U"
b0 o"
1v

#650000
0!
0-
0;
0v

#655000
1!
1-
b0 9"
1;
b0 U"
b0 o"
1v

#660000
0!
0-
0;
0v

#665000
1!
1-
b0 9"
1;
b0 U"
b0 o"
1v

#670000
0!
0-
0;
0v

#675000
1!
1-
b0 9"
1;
b0 U"
b0 o"
1v

#680000
0!
0-
0;
0v

#685000
1!
1-
b0 9"
1;
b0 U"
b0 o"
1v

#690000
0!
0-
0;
0v

#695000
1!
1-
b0 9"
1;
b0 U"
b0 o"
1v

#700000
0!
0-
0;
0v

#705000
1!
1-
b0 9"
1;
b0 U"
b0 o"
1v

#710000
0!
0-
0;
0v

#715000
1!
1-
b0 9"
1;
b0 U"
b0 o"
1v

#720000
0!
0-
0;
0v

#725000
1!
1-
b0 9"
1;
b0 U"
b0 o"
1v

#730000
0!
0-
0;
0v

#735000
1!
1-
b0 9"
1;
b0 U"
b0 o"
1v

#740000
0!
0-
0;
0v

#745000
1!
1-
b0 9"
1;
b0 U"
b0 o"
1v

#750000
0!
0-
0;
0v

#755000
1!
1-
b0 9"
1;
b0 U"
b0 o"
1v

#760000
0!
0-
0;
0v

#765000
1!
1-
b0 9"
1;
b0 U"
b0 o"
1v

#770000
0!
0-
0;
0v

#775000
1!
1-
b0 9"
1;
b0 U"
b0 o"
1v

#780000
0!
0-
0;
0v

#785000
1!
1-
b0 9"
1;
b0 U"
b0 o"
1v

#790000
0!
0-
0;
0v

#795000
1!
1-
b0 9"
1;
b0 U"
b0 o"
1v

#800000
0!
0-
0;
0v

#805000
1!
1-
b0 9"
1;
b0 U"
b0 o"
1v

#810000
0!
0-
0;
0v

#815000
1!
1-
b0 9"
1;
b0 U"
b0 o"
1v

#820000
0!
0-
0;
0v

#825000
1!
1-
b0 9"
1;
b0 U"
b0 o"
1v

#830000
0!
0-
0;
0v

#835000
1!
1-
b0 9"
1;
b0 U"
b0 o"
1v

#840000
0!
0-
0;
0v

#845000
1!
1-
b0 9"
1;
b0 U"
b0 o"
1v

#850000
0!
0-
0;
0v

#855000
1!
1-
b0 9"
1;
b0 U"
b0 o"
1v

#860000
0!
0-
0;
0v

#865000
1!
1-
b0 9"
1;
b0 U"
b0 o"
1v

#870000
0!
0-
0;
0v

#875000
1!
1-
b0 9"
1;
b0 U"
b0 o"
1v

#880000
0!
0-
0;
0v

#885000
1!
1-
b0 9"
1;
b0 U"
b0 o"
1v

#890000
0!
0-
0;
0v

#895000
1!
1-
b0 9"
1;
b0 U"
b0 o"
1v

#900000
0!
0-
0;
0v

#905000
1!
1-
b0 9"
1;
b0 U"
b0 o"
1v

#910000
0!
0-
0;
0v

#915000
1!
1-
b0 9"
1;
b0 U"
b0 o"
1v

#920000
0!
0-
0;
0v

#925000
1!
1-
b0 9"
1;
b0 U"
b0 o"
1v

#930000
0!
0-
0;
0v

#935000
1!
1-
b0 9"
1;
b0 U"
b0 o"
1v

#940000
0!
0-
0;
0v

#945000
1!
1-
b0 9"
1;
b0 U"
b0 o"
1v

#950000
0!
0-
0;
0v

#955000
1!
1-
b0 9"
1;
b0 U"
b0 o"
1v

