build/xsim.log
#-----------------------------------------------------------
# xsim v2024.1 (64-bit)
# SW Build 5076996 on Wed May 22 18:36:09 MDT 2024
# IP Build 5075265 on Wed May 22 21:45:21 MDT 2024
# SharedData Build 5076995 on Wed May 22 18:29:18 MDT 2024
# Start of session at: Tue Nov  5 15:37:01 2024
# Process ID: 39924
# Current directory: /home/flyinglobster/i2c-bridge-uvm/build
# Command line: xsim -mode tcl -source {xsim.dir/tb_top/xsim_script.tcl}
# Log file: /home/flyinglobster/i2c-bridge-uvm/build/xsim.log
# Journal file: /home/flyinglobster/i2c-bridge-uvm/build/xsim.jou
# Running On        :pop-os
# Platform          :Pop
# Operating System  :Pop!_OS 22.04 LTS
# Processor Detail  :AMD Ryzen 5 3600 6-Core Processor
# CPU Frequency     :4042.083 MHz
# CPU Physical cores:6
# CPU Logical cores :12
# Host memory       :33575 MB
# Swap memory       :21474 MB
# Total Virtual     :55050 MB
# Available Virtual :45017 MB
#-----------------------------------------------------------
source xsim.dir/tb_top/xsim_script.tcl
# xsim {tb_top} -testplusarg UVM_VERBOSITY=UVM_LOW -autoloadwcfg -runall
Time resolution is 1 ps
run -all
UVM_INFO /media/flyinglobster/wd/vivado/Vivado/2024.1/data/system_verilog/uvm_1.2/xlnx_uvm_package.sv(18601) @ 0: reporter [UVM/RELNOTES] 
----------------------------------------------------------------
UVM-1.2
(C) 2007-2014 Mentor Graphics Corporation
(C) 2007-2014 Cadence Design Systems, Inc.
(C) 2006-2014 Synopsys, Inc.
(C) 2011-2013 Cypress Semiconductor Corp.
(C) 2013-2014 NVIDIA Corporation
----------------------------------------------------------------

  ***********       IMPORTANT RELEASE NOTES         ************

  You are using a version of the UVM library that has been compiled
  with `UVM_NO_DEPRECATED undefined.

  You are using a version of the UVM library that has been compiled
  with `UVM_OBJECT_DO_NOT_NEED_CONSTRUCTOR undefined.

      (Specify +UVM_NO_RELNOTES to turn off this notice)

UVM_INFO @ 0: reporter [RNTST] Running test i2c_master_test...
UVM_INFO /home/flyinglobster/i2c-bridge-uvm/i2c_master_axil/i2c_master_env.sv(35) @ 0: uvm_test_top.env [ENV] All connections completed
UVM_INFO /media/flyinglobster/wd/vivado/Vivado/2024.1/data/system_verilog/uvm_1.2/xlnx_uvm_package.sv(20867) @ 0: reporter [UVM/COMP/NAMECHECK] This implementation of the component name checks requires DPI to be enabled
UVM_INFO /home/flyinglobster/i2c-bridge-uvm/i2c_master_axil/i2c_master_test.sv(15) @ 0: uvm_test_top [TEST] Starting config sequence
UVM_INFO /home/flyinglobster/i2c-bridge-uvm/i2c_master_axil/i2c_monitor.sv(74) @ 0: uvm_test_top.env.i2c_mon [I2C_MON] Waiting for I2C transaction...
UVM_INFO /home/flyinglobster/i2c-bridge-uvm/i2c_master_axil/i2c_master_test.sv(23) @ 1125000: uvm_test_top [TEST] Starting write/read sequence
UVM_INFO /home/flyinglobster/i2c-bridge-uvm/i2c_master_axil/sequences/write_read_seq.sv(19) @ 1125000: uvm_test_top.env.axil_seqr@@wr_seq [SEQ] Starting I2C write/read sequence
UVM_INFO /home/flyinglobster/i2c-bridge-uvm/i2c_master_axil/axil_monitor.sv(41) @ 1165000: uvm_test_top.env.axil_mon [AXIL_MON] Collected write transaction: addr=c data=00000950
UVM_INFO /home/flyinglobster/i2c-bridge-uvm/i2c_master_axil/i2c_master_scoreboard.sv(21) @ 1165000: uvm_test_top.env.scbd [SCBD] Received AXI transaction: addr=c data=00000950 read=0
UVM_INFO /home/flyinglobster/i2c-bridge-uvm/i2c_master_axil/i2c_master_scoreboard.sv(21) @ 1165000: uvm_test_top.env.scbd [SCBD] Received AXI transaction: addr=0 data=00000000 read=0
UVM_INFO /home/flyinglobster/i2c-bridge-uvm/i2c_master_axil/axil_monitor.sv(41) @ 1245000: uvm_test_top.env.axil_mon [AXIL_MON] Collected write transaction: addr=8 data=000002a5
UVM_INFO /home/flyinglobster/i2c-bridge-uvm/i2c_master_axil/i2c_master_scoreboard.sv(21) @ 1245000: uvm_test_top.env.scbd [SCBD] Received AXI transaction: addr=8 data=000002a5 read=0
UVM_INFO /home/flyinglobster/i2c-bridge-uvm/i2c_master_axil/i2c_master_scoreboard.sv(21) @ 1245000: uvm_test_top.env.scbd [SCBD] Received AXI transaction: addr=0 data=00000000 read=0
UVM_INFO /home/flyinglobster/i2c-bridge-uvm/i2c_master_axil/sequences/write_read_seq.sv(27) @ 1285000: uvm_test_top.env.axil_seqr@@wr_seq [SEQ] Sending I2C write command: addr=50 data=a5
UVM_INFO /home/flyinglobster/i2c-bridge-uvm/i2c_master_axil/axil_monitor.sv(55) @ 3365000: uvm_test_top.env.axil_mon [AXIL_MON] Collected read transaction: addr=0 data=0000480b
UVM_INFO /home/flyinglobster/i2c-bridge-uvm/i2c_master_axil/i2c_master_scoreboard.sv(21) @ 3365000: uvm_test_top.env.scbd [SCBD] Received AXI transaction: addr=0 data=0000480b read=1
UVM_INFO /home/flyinglobster/i2c-bridge-uvm/i2c_master_axil/i2c_master_scoreboard.sv(21) @ 3365000: uvm_test_top.env.scbd [SCBD] Received AXI transaction: addr=0 data=00000000 read=0
UVM_INFO /home/flyinglobster/i2c-bridge-uvm/i2c_master_axil/axil_monitor.sv(55) @ 4405000: uvm_test_top.env.axil_mon [AXIL_MON] Collected read transaction: addr=0 data=00004908
UVM_INFO /home/flyinglobster/i2c-bridge-uvm/i2c_master_axil/i2c_master_scoreboard.sv(21) @ 4405000: uvm_test_top.env.scbd [SCBD] Received AXI transaction: addr=0 data=00004908 read=1
UVM_INFO /home/flyinglobster/i2c-bridge-uvm/i2c_master_axil/i2c_master_scoreboard.sv(21) @ 4405000: uvm_test_top.env.scbd [SCBD] Received AXI transaction: addr=0 data=00000000 read=0
UVM_INFO /home/flyinglobster/i2c-bridge-uvm/i2c_master_axil/axil_monitor.sv(41) @ 9485000: uvm_test_top.env.axil_mon [AXIL_MON] Collected write transaction: addr=4 data=00000000
UVM_INFO /home/flyinglobster/i2c-bridge-uvm/i2c_master_axil/i2c_master_scoreboard.sv(21) @ 9485000: uvm_test_top.env.scbd [SCBD] Received AXI transaction: addr=4 data=00000000 read=0
UVM_INFO /home/flyinglobster/i2c-bridge-uvm/i2c_master_axil/i2c_master_scoreboard.sv(31) @ 9485000: uvm_test_top.env.scbd [SCBD] Queued expected I2C transaction: addr=00 read=0 data=00
UVM_INFO /home/flyinglobster/i2c-bridge-uvm/i2c_master_axil/i2c_master_scoreboard.sv(21) @ 9485000: uvm_test_top.env.scbd [SCBD] Received AXI transaction: addr=0 data=00000000 read=0
UVM_INFO /home/flyinglobster/i2c-bridge-uvm/i2c_master_axil/sequences/write_read_seq.sv(47) @ 9525000: uvm_test_top.env.axil_seqr@@wr_seq [SEQ] Sending I2C read command: addr=50
UVM_INFO /home/flyinglobster/i2c-bridge-uvm/i2c_master_axil/axil_monitor.sv(55) @ 10565000: uvm_test_top.env.axil_mon [AXIL_MON] Collected read transaction: addr=8 data=00000000
UVM_INFO /home/flyinglobster/i2c-bridge-uvm/i2c_master_axil/i2c_master_scoreboard.sv(21) @ 10565000: uvm_test_top.env.scbd [SCBD] Received AXI transaction: addr=8 data=00000000 read=1
UVM_INFO /home/flyinglobster/i2c-bridge-uvm/i2c_master_axil/i2c_master_scoreboard.sv(21) @ 10565000: uvm_test_top.env.scbd [SCBD] Received AXI transaction: addr=0 data=00000000 read=0
UVM_INFO /home/flyinglobster/i2c-bridge-uvm/i2c_master_axil/axil_monitor.sv(55) @ 11605000: uvm_test_top.env.axil_mon [AXIL_MON] Collected read transaction: addr=8 data=00000000
UVM_INFO /home/flyinglobster/i2c-bridge-uvm/i2c_master_axil/i2c_master_scoreboard.sv(21) @ 11605000: uvm_test_top.env.scbd [SCBD] Received AXI transaction: addr=8 data=00000000 read=1
UVM_INFO /home/flyinglobster/i2c-bridge-uvm/i2c_master_axil/i2c_master_scoreboard.sv(21) @ 11605000: uvm_test_top.env.scbd [SCBD] Received AXI transaction: addr=0 data=00000000 read=0
UVM_INFO /home/flyinglobster/i2c-bridge-uvm/i2c_master_axil/axil_monitor.sv(55) @ 12645000: uvm_test_top.env.axil_mon [AXIL_MON] Collected read transaction: addr=8 data=00000000
UVM_INFO /home/flyinglobster/i2c-bridge-uvm/i2c_master_axil/i2c_master_scoreboard.sv(21) @ 12645000: uvm_test_top.env.scbd [SCBD] Received AXI transaction: addr=8 data=00000000 read=1
UVM_INFO /home/flyinglobster/i2c-bridge-uvm/i2c_master_axil/i2c_master_scoreboard.sv(21) @ 12645000: uvm_test_top.env.scbd [SCBD] Received AXI transaction: addr=0 data=00000000 read=0
UVM_INFO /home/flyinglobster/i2c-bridge-uvm/i2c_master_axil/axil_monitor.sv(55) @ 13685000: uvm_test_top.env.axil_mon [AXIL_MON] Collected read transaction: addr=8 data=000003ff
UVM_INFO /home/flyinglobster/i2c-bridge-uvm/i2c_master_axil/i2c_master_scoreboard.sv(21) @ 13685000: uvm_test_top.env.scbd [SCBD] Received AXI transaction: addr=8 data=000003ff read=1
UVM_INFO /home/flyinglobster/i2c-bridge-uvm/i2c_master_axil/i2c_master_scoreboard.sv(21) @ 13685000: uvm_test_top.env.scbd [SCBD] Received AXI transaction: addr=0 data=00000000 read=0
UVM_INFO /home/flyinglobster/i2c-bridge-uvm/i2c_master_axil/sequences/write_read_seq.sv(60) @ 13685000: uvm_test_top.env.axil_seqr@@wr_seq [SEQ] Read data: ff
UVM_INFO /media/flyinglobster/wd/vivado/Vivado/2024.1/data/system_verilog/uvm_1.2/xlnx_uvm_package.sv(19968) @ 23685000: reporter [TEST_DONE] 'run' phase is ready to proceed to the 'extract' phase
UVM_INFO /home/flyinglobster/i2c-bridge-uvm/i2c_master_axil/i2c_master_scoreboard.sv(38) @ 23685000: uvm_test_top.env.scbd [SCBD] Total AXI transactions: 18
UVM_INFO /home/flyinglobster/i2c-bridge-uvm/i2c_master_axil/i2c_master_scoreboard.sv(40) @ 23685000: uvm_test_top.env.scbd [SCBD] Remaining expected I2C transactions: 1
UVM_ERROR /home/flyinglobster/i2c-bridge-uvm/i2c_master_axil/i2c_master_scoreboard.sv(45) @ 23685000: uvm_test_top.env.scbd [SCBD] Missing I2C transaction: addr=00 read=0 data=00
UVM_INFO /media/flyinglobster/wd/vivado/Vivado/2024.1/data/system_verilog/uvm_1.2/xlnx_uvm_package.sv(13673) @ 23685000: reporter [UVM/REPORT/SERVER] 
--- UVM Report Summary ---

** Report counts by severity
UVM_INFO :   42
UVM_WARNING :    0
UVM_ERROR :    1
UVM_FATAL :    0
** Report counts by id
[AXIL_MON]     9
[ENV]     1
[I2C_MON]     1
[RNTST]     1
[SCBD]    22
[SEQ]     4
[TEST]     2
[TEST_DONE]     1
[UVM/COMP/NAMECHECK]     1
[UVM/RELNOTES]     1

$finish called at time : 23685 ns : File "/media/flyinglobster/wd/vivado/Vivado/2024.1/data/system_verilog/uvm_1.2/xlnx_uvm_package.sv" Line 18699
exit
INFO: [Common 17-206] Exiting xsim at Tue Nov  5 15:37:04 2024...
